
RAM: DDR3L-1066/777 bin F 1x4Gb 533MHz
Trying to boot from MMC2


U-Boot 2020.04-rc4+karo+ge0718b3ab7 (Sep 29 2020 - 07:00:19 +0000)

CPU: STM32MP157CAC Rev.B
Model: Ka-Ro electronics GmbH QSMP-1570 solder-in module
Board: QSMP-1570 in basic mode (karo,stm32mp157c-qsmp-1570)
DRAM:  512 MiB
Clocks:
- MPU : 650 MHz
- MCU : 208.878 MHz
- AXI : 266.500 MHz
- PER : 24 MHz
- DDR : 533 MHz
product_below_2v5=1: HSLVEN update is destructive, no update as VDD>2.7V
MMC:   STM32 SDMMC2: 2, STM32 SDMMC2: 0
Loading Environment from MMC... OK
In:    serial@40010000
Out:   serial@40010000
Err:   serial@40010000
Net:   MAC addr from fuse: 00:0c:c6:88:4f:3e
eth0: ethernet@5800a000
Hit any key to stop autoboot:  0
5380200 bytes read in 256 ms (20 MiB/s)
39863 bytes read in 6 ms (6.3 MiB/s)
## Booting kernel from Legacy Image at c0000000 ...
   Image Name:   Linux-5.7.1
   Image Type:   ARM Linux Kernel Image (uncompressed)
   Data Size:    5380136 Bytes = 5.1 MiB
   Load Address: c0008000
   Entry Point:  c0008000
   Verifying Checksum ... OK
## Flattened Device Tree blob at c4000000
   Booting using the fdt blob at 0xc4000000
   Loading Kernel Image
   Using Device Tree in place at c4000000, end c400cbb6
No 'display' node found: -5

Starting kernel ...

Uncompressing Linux... done, booting the kernel.
[    0.000000] Booting Linux on physical CPU 0x0
[    0.000000] Linux version 5.7.1 (support@karo-electronics.de) (gcc version 9.2.0 (GCC), GNU ld (GNU Binutils) 2.32.0.20190204) #1 SMP PREEMPT Tue Sep 29 06:44:08 UTC 2020
[    0.000000] CPU: ARMv7 Processor [410fc075] revision 5 (ARMv7), cr=10c5387d
[    0.000000] CPU: div instructions available: patching division code
[    0.000000] CPU: PIPT / VIPT nonaliasing data cache, VIPT aliasing instruction cache
[    0.000000] OF: fdt: Machine model: Ka-Ro electronics GmbH QSMP-1570 solder-in module
[    0.000000] Memory policy: Data cache writealloc
[    0.000000] cma: Reserved 128 MiB at 0xd8000000
[    0.000000] Hit pending asynchronous external abort (FSR=0x00001c06) during first unmask, this is most likely caused by a firmware/bootloader bug.
[    0.000000] On node 0 totalpages: 131072
[    0.000000]   Normal zone: 1152 pages used for memmap
[    0.000000]   Normal zone: 0 pages reserved
[    0.000000]   Normal zone: 131072 pages, LIFO batch:31
[    0.000000] psci: probing for conduit method from DT.
[    0.000000] psci: PSCIv1.0 detected in firmware.
[    0.000000] psci: Using standard PSCI v0.2 function IDs
[    0.000000] psci: Trusted OS migration not required
[    0.000000] psci: SMC Calling Convention v1.0
[    0.000000] percpu: Embedded 15 pages/cpu s31692 r8192 d21556 u61440
[    0.000000] pcpu-alloc: s31692 r8192 d21556 u61440 alloc=15*4096
[    0.000000] pcpu-alloc: [0] 0 [0] 1
[    0.000000] Built 1 zonelists, mobility grouping on.  Total pages: 129920
[    0.000000] Kernel command line: init=/linuxrc console=ttySTM0,115200 ro debug panic=0 root=PARTUUID=e91c4e10-16e6-4c0e-bd0e-77becf4a3582 rootwait
[    0.000000] Dentry cache hash table entries: 65536 (order: 6, 262144 bytes, linear)
[    0.000000] Inode-cache hash table entries: 32768 (order: 5, 131072 bytes, linear)
[    0.000000] allocated 524288 bytes of page_ext
[    0.000000] mem auto-init: stack:off, heap alloc:off, heap free:off
[    0.000000] Memory: 375080K/524288K available (8192K kernel code, 334K rwdata, 1804K rodata, 1024K init, 452K bss, 18136K reserved, 131072K cma-reserved, 0K highmem)
[    0.000000] random: get_random_u32 called from kmem_cache_open+0x20/0x394 with crng_init=0
[    0.000000] SLUB: HWalign=64, Order=0-3, MinObjects=0, CPUs=2, Nodes=1
[    0.000000] rcu: Preemptible hierarchical RCU implementation.
[    0.000000] rcu:     RCU restricting CPUs from NR_CPUS=4 to nr_cpu_ids=2.
[    0.000000]  Tasks RCU enabled.
[    0.000000] rcu: RCU calculated value of scheduler-enlistment delay is 10 jiffies.
[    0.000000] rcu: Adjusting geometry for rcu_fanout_leaf=16, nr_cpu_ids=2
[    0.000000] NR_IRQS: 16, nr_irqs: 16, preallocated irqs: 16
[    0.000000] arch_timer: cp15 timer(s) running at 64.00MHz (virt).
[    0.000000] clocksource: arch_sys_counter: mask: 0xffffffffffffff max_cycles: 0xec2a6fa00, max_idle_ns: 440795202120 ns
[    0.000008] sched_clock: 56 bits at 64MHz, resolution 15ns, wraps every 2199023255546ns
[    0.000023] Switching to timer-based delay loop, resolution 15ns
[    0.000659] Console: colour dummy device 80x30
[    0.000713] Calibrating delay loop (skipped), value calculated using timer frequency.. 128.00 BogoMIPS (lpj=640000)
[    0.000732] pid_max: default: 32768 minimum: 301
[    0.001113] Mount-cache hash table entries: 1024 (order: 0, 4096 bytes, linear)
[    0.001133] Mountpoint-cache hash table entries: 1024 (order: 0, 4096 bytes, linear)
[    0.002393] CPU: Testing write buffer coherency: ok
[    0.002782] CPU0: update cpu_capacity 1024
[    0.002799] CPU0: thread -1, cpu 0, socket 0, mpidr 80000000
[    0.003652] Setting up static identity map for 0xc0100000 - 0xc0100060
[    0.003825] rcu: Hierarchical SRCU implementation.
[    0.007663] smp: Bringing up secondary CPUs ...
[    0.008427] CPU1: update cpu_capacity 1024
[    0.008438] CPU1: thread -1, cpu 1, socket 0, mpidr 80000001
[    0.008633] smp: Brought up 1 node, 2 CPUs
[    0.008657] SMP: Total of 2 processors activated (256.00 BogoMIPS).
[    0.008665] CPU: All CPU(s) started in SVC mode.
[    0.009369] devtmpfs: initialized
[    0.022174] VFP support v0.3: implementor 41 architecture 2 part 30 variant 7 rev 5
[    0.032405] DMA-API: preallocated 65536 debug entries
[    0.032425] DMA-API: debugging enabled by kernel config
[    0.032450] clocksource: jiffies: mask: 0xffffffff max_cycles: 0xffffffff, max_idle_ns: 19112604462750000 ns
[    0.032484] futex hash table entries: 512 (order: 3, 32768 bytes, linear)
[    0.038686] pinctrl core: initialized pinctrl subsystem
[    0.039137] reg-dummy reg-dummy: no of_node; not parsing pinctrl DT
[    0.039232] regulator-dummy: no parameters
[    0.039530] thermal_sys: Registered thermal governor 'fair_share'
[    0.039537] thermal_sys: Registered thermal governor 'step_wise'
[    0.039549] thermal_sys: Registered thermal governor 'user_space'
[    0.040449] NET: Registered protocol family 16
[    0.043242] DMA: preallocated 256 KiB pool for atomic coherent allocations
[    0.044557] i2c-core: driver [dummy] registered
[    0.044665] cpuidle: using governor ladder
[    0.044706] cpuidle: using governor menu
[    0.051112] /soc/interrupt-controller@5000d000: bank0
[    0.051137] /soc/interrupt-controller@5000d000: bank1
[    0.051152] /soc/interrupt-controller@5000d000: bank2
[    0.055256] stm32mp157-pinctrl soc:pin-controller@50002000: package detected: 4
[    0.055453] stm32mp157-pinctrl soc:pin-controller@50002000: irqmux0: reg:0x60, lsb:0, msb:7
[    0.055474] stm32mp157-pinctrl soc:pin-controller@50002000: irqmux1: reg:0x60, lsb:8, msb:15
[    0.055491] stm32mp157-pinctrl soc:pin-controller@50002000: irqmux2: reg:0x60, lsb:16, msb:23
[    0.055508] stm32mp157-pinctrl soc:pin-controller@50002000: irqmux3: reg:0x60, lsb:24, msb:31
[    0.055524] stm32mp157-pinctrl soc:pin-controller@50002000: irqmux4: reg:0x64, lsb:0, msb:7
[    0.055541] stm32mp157-pinctrl soc:pin-controller@50002000: irqmux5: reg:0x64, lsb:8, msb:15
[    0.055557] stm32mp157-pinctrl soc:pin-controller@50002000: irqmux6: reg:0x64, lsb:16, msb:23
[    0.055574] stm32mp157-pinctrl soc:pin-controller@50002000: irqmux7: reg:0x64, lsb:24, msb:31
[    0.055590] stm32mp157-pinctrl soc:pin-controller@50002000: irqmux8: reg:0x68, lsb:0, msb:7
[    0.055607] stm32mp157-pinctrl soc:pin-controller@50002000: irqmux9: reg:0x68, lsb:8, msb:15
[    0.055623] stm32mp157-pinctrl soc:pin-controller@50002000: irqmux10: reg:0x68, lsb:16, msb:23
[    0.055640] stm32mp157-pinctrl soc:pin-controller@50002000: irqmux11: reg:0x68, lsb:24, msb:31
[    0.055657] stm32mp157-pinctrl soc:pin-controller@50002000: irqmux12: reg:0x6c, lsb:0, msb:7
[    0.055673] stm32mp157-pinctrl soc:pin-controller@50002000: irqmux13: reg:0x6c, lsb:8, msb:15
[    0.055690] stm32mp157-pinctrl soc:pin-controller@50002000: irqmux14: reg:0x6c, lsb:16, msb:23
[    0.055706] stm32mp157-pinctrl soc:pin-controller@50002000: irqmux15: reg:0x6c, lsb:24, msb:31
[    0.055746] stm32mp157-pinctrl soc:pin-controller@50002000: try to register 140 pins ...
[    0.055763] pinctrl core: registered pin 0 (PA0) on soc:pin-controller@50002000
[    0.055778] pinctrl core: registered pin 1 (PA1) on soc:pin-controller@50002000
[    0.055790] pinctrl core: registered pin 2 (PA2) on soc:pin-controller@50002000
[    0.055802] pinctrl core: registered pin 3 (PA3) on soc:pin-controller@50002000
[    0.055814] pinctrl core: registered pin 4 (PA4) on soc:pin-controller@50002000
[    0.055826] pinctrl core: registered pin 5 (PA5) on soc:pin-controller@50002000
[    0.055837] pinctrl core: registered pin 6 (PA6) on soc:pin-controller@50002000
[    0.055849] pinctrl core: registered pin 7 (PA7) on soc:pin-controller@50002000
[    0.055860] pinctrl core: registered pin 8 (PA8) on soc:pin-controller@50002000
[    0.055872] pinctrl core: registered pin 9 (PA9) on soc:pin-controller@50002000
[    0.055884] pinctrl core: registered pin 10 (PA10) on soc:pin-controller@50002000
[    0.055895] pinctrl core: registered pin 11 (PA11) on soc:pin-controller@50002000
[    0.055907] pinctrl core: registered pin 12 (PA12) on soc:pin-controller@50002000
[    0.055919] pinctrl core: registered pin 13 (PA13) on soc:pin-controller@50002000
[    0.055931] pinctrl core: registered pin 14 (PA14) on soc:pin-controller@50002000
[    0.055942] pinctrl core: registered pin 15 (PA15) on soc:pin-controller@50002000
[    0.055954] pinctrl core: registered pin 16 (PB0) on soc:pin-controller@50002000
[    0.055965] pinctrl core: registered pin 17 (PB1) on soc:pin-controller@50002000
[    0.055977] pinctrl core: registered pin 18 (PB2) on soc:pin-controller@50002000
[    0.055989] pinctrl core: registered pin 19 (PB3) on soc:pin-controller@50002000
[    0.056000] pinctrl core: registered pin 20 (PB4) on soc:pin-controller@50002000
[    0.056012] pinctrl core: registered pin 21 (PB5) on soc:pin-controller@50002000
[    0.056023] pinctrl core: registered pin 22 (PB6) on soc:pin-controller@50002000
[    0.056035] pinctrl core: registered pin 23 (PB7) on soc:pin-controller@50002000
[    0.056046] pinctrl core: registered pin 24 (PB8) on soc:pin-controller@50002000
[    0.056058] pinctrl core: registered pin 25 (PB9) on soc:pin-controller@50002000
[    0.056070] pinctrl core: registered pin 26 (PB10) on soc:pin-controller@50002000
[    0.056081] pinctrl core: registered pin 27 (PB11) on soc:pin-controller@50002000
[    0.056093] pinctrl core: registered pin 28 (PB12) on soc:pin-controller@50002000
[    0.056105] pinctrl core: registered pin 29 (PB13) on soc:pin-controller@50002000
[    0.056117] pinctrl core: registered pin 30 (PB14) on soc:pin-controller@50002000
[    0.056128] pinctrl core: registered pin 31 (PB15) on soc:pin-controller@50002000
[    0.056140] pinctrl core: registered pin 32 (PC0) on soc:pin-controller@50002000
[    0.056152] pinctrl core: registered pin 33 (PC1) on soc:pin-controller@50002000
[    0.056163] pinctrl core: registered pin 34 (PC2) on soc:pin-controller@50002000
[    0.056175] pinctrl core: registered pin 35 (PC3) on soc:pin-controller@50002000
[    0.056186] pinctrl core: registered pin 36 (PC4) on soc:pin-controller@50002000
[    0.056198] pinctrl core: registered pin 37 (PC5) on soc:pin-controller@50002000
[    0.056209] pinctrl core: registered pin 38 (PC6) on soc:pin-controller@50002000
[    0.056221] pinctrl core: registered pin 39 (PC7) on soc:pin-controller@50002000
[    0.056233] pinctrl core: registered pin 40 (PC8) on soc:pin-controller@50002000
[    0.056244] pinctrl core: registered pin 41 (PC9) on soc:pin-controller@50002000
[    0.056256] pinctrl core: registered pin 42 (PC10) on soc:pin-controller@50002000
[    0.056268] pinctrl core: registered pin 43 (PC11) on soc:pin-controller@50002000
[    0.056279] pinctrl core: registered pin 44 (PC12) on soc:pin-controller@50002000
[    0.056291] pinctrl core: registered pin 45 (PC13) on soc:pin-controller@50002000
[    0.056303] pinctrl core: registered pin 46 (PC14) on soc:pin-controller@50002000
[    0.056315] pinctrl core: registered pin 47 (PC15) on soc:pin-controller@50002000
[    0.056337] pinctrl core: registered pin 48 (PD0) on soc:pin-controller@50002000
[    0.056349] pinctrl core: registered pin 49 (PD1) on soc:pin-controller@50002000
[    0.056360] pinctrl core: registered pin 50 (PD2) on soc:pin-controller@50002000
[    0.056372] pinctrl core: registered pin 51 (PD3) on soc:pin-controller@50002000
[    0.056383] pinctrl core: registered pin 52 (PD4) on soc:pin-controller@50002000
[    0.056395] pinctrl core: registered pin 53 (PD5) on soc:pin-controller@50002000
[    0.056406] pinctrl core: registered pin 54 (PD6) on soc:pin-controller@50002000
[    0.056418] pinctrl core: registered pin 55 (PD7) on soc:pin-controller@50002000
[    0.056429] pinctrl core: registered pin 56 (PD8) on soc:pin-controller@50002000
[    0.056441] pinctrl core: registered pin 57 (PD9) on soc:pin-controller@50002000
[    0.056452] pinctrl core: registered pin 58 (PD10) on soc:pin-controller@50002000
[    0.056464] pinctrl core: registered pin 59 (PD11) on soc:pin-controller@50002000
[    0.056476] pinctrl core: registered pin 60 (PD12) on soc:pin-controller@50002000
[    0.056487] pinctrl core: registered pin 61 (PD13) on soc:pin-controller@50002000
[    0.056499] pinctrl core: registered pin 62 (PD14) on soc:pin-controller@50002000
[    0.056511] pinctrl core: registered pin 63 (PD15) on soc:pin-controller@50002000
[    0.056524] pinctrl core: registered pin 64 (PE0) on soc:pin-controller@50002000
[    0.056536] pinctrl core: registered pin 65 (PE1) on soc:pin-controller@50002000
[    0.056547] pinctrl core: registered pin 66 (PE2) on soc:pin-controller@50002000
[    0.056559] pinctrl core: registered pin 67 (PE3) on soc:pin-controller@50002000
[    0.056570] pinctrl core: registered pin 68 (PE4) on soc:pin-controller@50002000
[    0.056582] pinctrl core: registered pin 69 (PE5) on soc:pin-controller@50002000
[    0.056593] pinctrl core: registered pin 70 (PE6) on soc:pin-controller@50002000
[    0.056605] pinctrl core: registered pin 71 (PE7) on soc:pin-controller@50002000
[    0.056616] pinctrl core: registered pin 72 (PE8) on soc:pin-controller@50002000
[    0.056628] pinctrl core: registered pin 73 (PE9) on soc:pin-controller@50002000
[    0.056639] pinctrl core: registered pin 74 (PE10) on soc:pin-controller@50002000
[    0.056651] pinctrl core: registered pin 75 (PE11) on soc:pin-controller@50002000
[    0.056663] pinctrl core: registered pin 76 (PE12) on soc:pin-controller@50002000
[    0.056675] pinctrl core: registered pin 77 (PE13) on soc:pin-controller@50002000
[    0.056686] pinctrl core: registered pin 78 (PE14) on soc:pin-controller@50002000
[    0.056698] pinctrl core: registered pin 79 (PE15) on soc:pin-controller@50002000
[    0.056709] pinctrl core: registered pin 80 (PF0) on soc:pin-controller@50002000
[    0.056721] pinctrl core: registered pin 81 (PF1) on soc:pin-controller@50002000
[    0.056732] pinctrl core: registered pin 82 (PF2) on soc:pin-controller@50002000
[    0.056744] pinctrl core: registered pin 83 (PF3) on soc:pin-controller@50002000
[    0.056756] pinctrl core: registered pin 84 (PF4) on soc:pin-controller@50002000
[    0.056767] pinctrl core: registered pin 85 (PF5) on soc:pin-controller@50002000
[    0.056779] pinctrl core: registered pin 86 (PF6) on soc:pin-controller@50002000
[    0.056790] pinctrl core: registered pin 87 (PF7) on soc:pin-controller@50002000
[    0.056801] pinctrl core: registered pin 88 (PF8) on soc:pin-controller@50002000
[    0.056813] pinctrl core: registered pin 89 (PF9) on soc:pin-controller@50002000
[    0.056824] pinctrl core: registered pin 90 (PF10) on soc:pin-controller@50002000
[    0.056836] pinctrl core: registered pin 91 (PF11) on soc:pin-controller@50002000
[    0.056848] pinctrl core: registered pin 92 (PF12) on soc:pin-controller@50002000
[    0.056859] pinctrl core: registered pin 93 (PF13) on soc:pin-controller@50002000
[    0.056871] pinctrl core: registered pin 94 (PF14) on soc:pin-controller@50002000
[    0.056883] pinctrl core: registered pin 95 (PF15) on soc:pin-controller@50002000
[    0.056895] pinctrl core: registered pin 96 (PG0) on soc:pin-controller@50002000
[    0.056907] pinctrl core: registered pin 97 (PG1) on soc:pin-controller@50002000
[    0.056918] pinctrl core: registered pin 98 (PG2) on soc:pin-controller@50002000
[    0.056930] pinctrl core: registered pin 99 (PG3) on soc:pin-controller@50002000
[    0.056941] pinctrl core: registered pin 100 (PG4) on soc:pin-controller@50002000
[    0.056953] pinctrl core: registered pin 101 (PG5) on soc:pin-controller@50002000
[    0.056965] pinctrl core: registered pin 102 (PG6) on soc:pin-controller@50002000
[    0.056977] pinctrl core: registered pin 103 (PG7) on soc:pin-controller@50002000
[    0.056988] pinctrl core: registered pin 104 (PG8) on soc:pin-controller@50002000
[    0.057000] pinctrl core: registered pin 105 (PG9) on soc:pin-controller@50002000
[    0.057011] pinctrl core: registered pin 106 (PG10) on soc:pin-controller@50002000
[    0.057023] pinctrl core: registered pin 107 (PG11) on soc:pin-controller@50002000
[    0.057035] pinctrl core: registered pin 108 (PG12) on soc:pin-controller@50002000
[    0.057046] pinctrl core: registered pin 109 (PG13) on soc:pin-controller@50002000
[    0.057058] pinctrl core: registered pin 110 (PG14) on soc:pin-controller@50002000
[    0.057070] pinctrl core: registered pin 111 (PG15) on soc:pin-controller@50002000
[    0.057091] pinctrl core: registered pin 112 (PH0) on soc:pin-controller@50002000
[    0.057103] pinctrl core: registered pin 113 (PH1) on soc:pin-controller@50002000
[    0.057115] pinctrl core: registered pin 114 (PH2) on soc:pin-controller@50002000
[    0.057127] pinctrl core: registered pin 115 (PH3) on soc:pin-controller@50002000
[    0.057138] pinctrl core: registered pin 116 (PH4) on soc:pin-controller@50002000
[    0.057150] pinctrl core: registered pin 117 (PH5) on soc:pin-controller@50002000
[    0.057162] pinctrl core: registered pin 118 (PH6) on soc:pin-controller@50002000
[    0.057174] pinctrl core: registered pin 119 (PH7) on soc:pin-controller@50002000
[    0.057185] pinctrl core: registered pin 120 (PH8) on soc:pin-controller@50002000
[    0.057197] pinctrl core: registered pin 121 (PH9) on soc:pin-controller@50002000
[    0.057209] pinctrl core: registered pin 122 (PH10) on soc:pin-controller@50002000
[    0.057221] pinctrl core: registered pin 123 (PH11) on soc:pin-controller@50002000
[    0.057232] pinctrl core: registered pin 124 (PH12) on soc:pin-controller@50002000
[    0.057244] pinctrl core: registered pin 125 (PH13) on soc:pin-controller@50002000
[    0.057255] pinctrl core: registered pin 126 (PH14) on soc:pin-controller@50002000
[    0.057267] pinctrl core: registered pin 127 (PH15) on soc:pin-controller@50002000
[    0.057280] pinctrl core: registered pin 128 (PI0) on soc:pin-controller@50002000
[    0.057292] pinctrl core: registered pin 129 (PI1) on soc:pin-controller@50002000
[    0.057303] pinctrl core: registered pin 130 (PI2) on soc:pin-controller@50002000
[    0.057315] pinctrl core: registered pin 131 (PI3) on soc:pin-controller@50002000
[    0.057327] pinctrl core: registered pin 132 (PI4) on soc:pin-controller@50002000
[    0.057339] pinctrl core: registered pin 133 (PI5) on soc:pin-controller@50002000
[    0.057350] pinctrl core: registered pin 134 (PI6) on soc:pin-controller@50002000
[    0.057362] pinctrl core: registered pin 135 (PI7) on soc:pin-controller@50002000
[    0.057373] pinctrl core: registered pin 136 (PI8) on soc:pin-controller@50002000
[    0.057385] pinctrl core: registered pin 137 (PI9) on soc:pin-controller@50002000
[    0.057397] pinctrl core: registered pin 138 (PI10) on soc:pin-controller@50002000
[    0.057409] pinctrl core: registered pin 139 (PI11) on soc:pin-controller@50002000
[    0.057432] stm32mp157-pinctrl soc:pin-controller@50002000: no hogs found
[    0.057760] gpio gpiochip0: (GPIOA): created GPIO range 0->15 ==> soc:pin-controller@50002000 PIN 0->15
[    0.058207] gpio gpiochip0: (GPIOA): added GPIO chardev (254:0)
[    0.058341] gpiochip_setup_dev: registered GPIOs 0 to 15 on device: gpiochip0 (GPIOA)
[    0.058360] stm32mp157-pinctrl soc:pin-controller@50002000: GPIOA bank added
[    0.058497] gpio gpiochip1: (GPIOB): created GPIO range 0->15 ==> soc:pin-controller@50002000 PIN 16->31
[    0.058802] gpio gpiochip1: (GPIOB): added GPIO chardev (254:1)
[    0.058919] gpiochip_setup_dev: registered GPIOs 16 to 31 on device: gpiochip1 (GPIOB)
[    0.058935] stm32mp157-pinctrl soc:pin-controller@50002000: GPIOB bank added
[    0.059081] gpio gpiochip2: (GPIOC): created GPIO range 0->15 ==> soc:pin-controller@50002000 PIN 32->47
[    0.059363] gpio gpiochip2: (GPIOC): added GPIO chardev (254:2)
[    0.059475] gpiochip_setup_dev: registered GPIOs 32 to 47 on device: gpiochip2 (GPIOC)
[    0.059492] stm32mp157-pinctrl soc:pin-controller@50002000: GPIOC bank added
[    0.059607] gpio gpiochip3: (GPIOD): created GPIO range 0->15 ==> soc:pin-controller@50002000 PIN 48->63
[    0.059855] gpio gpiochip3: (GPIOD): added GPIO chardev (254:3)
[    0.059977] gpiochip_setup_dev: registered GPIOs 48 to 63 on device: gpiochip3 (GPIOD)
[    0.059993] stm32mp157-pinctrl soc:pin-controller@50002000: GPIOD bank added
[    0.060171] gpio gpiochip4: (GPIOE): created GPIO range 0->15 ==> soc:pin-controller@50002000 PIN 64->79
[    0.060428] gpio gpiochip4: (GPIOE): added GPIO chardev (254:4)
[    0.060553] gpiochip_setup_dev: registered GPIOs 64 to 79 on device: gpiochip4 (GPIOE)
[    0.060569] stm32mp157-pinctrl soc:pin-controller@50002000: GPIOE bank added
[    0.060684] gpio gpiochip5: (GPIOF): created GPIO range 0->15 ==> soc:pin-controller@50002000 PIN 80->95
[    0.060928] gpio gpiochip5: (GPIOF): added GPIO chardev (254:5)
[    0.061036] gpiochip_setup_dev: registered GPIOs 80 to 95 on device: gpiochip5 (GPIOF)
[    0.061052] stm32mp157-pinctrl soc:pin-controller@50002000: GPIOF bank added
[    0.061161] gpio gpiochip6: (GPIOG): created GPIO range 0->15 ==> soc:pin-controller@50002000 PIN 96->111
[    0.061415] gpio gpiochip6: (GPIOG): added GPIO chardev (254:6)
[    0.061523] gpiochip_setup_dev: registered GPIOs 96 to 111 on device: gpiochip6 (GPIOG)
[    0.061539] stm32mp157-pinctrl soc:pin-controller@50002000: GPIOG bank added
[    0.061662] gpio gpiochip7: (GPIOH): created GPIO range 0->15 ==> soc:pin-controller@50002000 PIN 112->127
[    0.061913] gpio gpiochip7: (GPIOH): added GPIO chardev (254:7)
[    0.062034] gpiochip_setup_dev: registered GPIOs 112 to 127 on device: gpiochip7 (GPIOH)
[    0.062050] stm32mp157-pinctrl soc:pin-controller@50002000: GPIOH bank added
[    0.062164] gpio gpiochip8: (GPIOI): created GPIO range 0->11 ==> soc:pin-controller@50002000 PIN 128->139
[    0.062408] gpio gpiochip8: (GPIOI): added GPIO chardev (254:8)
[    0.062531] gpiochip_setup_dev: registered GPIOs 128 to 143 on device: gpiochip8 (GPIOI)
[    0.062547] stm32mp157-pinctrl soc:pin-controller@50002000: GPIOI bank added
[    0.062602] stm32mp157-pinctrl soc:pin-controller@50002000: Pinctrl STM32 initialized
[    0.062949] stm32mp157-pinctrl soc:pin-controller-z@54004000: package detected: 4
[    0.062985] stm32mp157-pinctrl soc:pin-controller-z@54004000: irqmux0: reg:0x60, lsb:0, msb:7
[    0.063004] stm32mp157-pinctrl soc:pin-controller-z@54004000: irqmux1: reg:0x60, lsb:8, msb:15
[    0.063020] stm32mp157-pinctrl soc:pin-controller-z@54004000: irqmux2: reg:0x60, lsb:16, msb:23
[    0.063037] stm32mp157-pinctrl soc:pin-controller-z@54004000: irqmux3: reg:0x60, lsb:24, msb:31
[    0.063053] stm32mp157-pinctrl soc:pin-controller-z@54004000: irqmux4: reg:0x64, lsb:0, msb:7
[    0.063070] stm32mp157-pinctrl soc:pin-controller-z@54004000: irqmux5: reg:0x64, lsb:8, msb:15
[    0.063087] stm32mp157-pinctrl soc:pin-controller-z@54004000: irqmux6: reg:0x64, lsb:16, msb:23
[    0.063103] stm32mp157-pinctrl soc:pin-controller-z@54004000: irqmux7: reg:0x64, lsb:24, msb:31
[    0.063120] stm32mp157-pinctrl soc:pin-controller-z@54004000: irqmux8: reg:0x68, lsb:0, msb:7
[    0.063136] stm32mp157-pinctrl soc:pin-controller-z@54004000: irqmux9: reg:0x68, lsb:8, msb:15
[    0.063153] stm32mp157-pinctrl soc:pin-controller-z@54004000: irqmux10: reg:0x68, lsb:16, msb:23
[    0.063170] stm32mp157-pinctrl soc:pin-controller-z@54004000: irqmux11: reg:0x68, lsb:24, msb:31
[    0.063187] stm32mp157-pinctrl soc:pin-controller-z@54004000: irqmux12: reg:0x6c, lsb:0, msb:7
[    0.063204] stm32mp157-pinctrl soc:pin-controller-z@54004000: irqmux13: reg:0x6c, lsb:8, msb:15
[    0.063220] stm32mp157-pinctrl soc:pin-controller-z@54004000: irqmux14: reg:0x6c, lsb:16, msb:23
[    0.063237] stm32mp157-pinctrl soc:pin-controller-z@54004000: irqmux15: reg:0x6c, lsb:24, msb:31
[    0.063261] stm32mp157-pinctrl soc:pin-controller-z@54004000: try to register 8 pins ...
[    0.063279] pinctrl core: registered pin 400 (PZ0) on soc:pin-controller-z@54004000
[    0.063292] pinctrl core: registered pin 401 (PZ1) on soc:pin-controller-z@54004000
[    0.063304] pinctrl core: registered pin 402 (PZ2) on soc:pin-controller-z@54004000
[    0.063316] pinctrl core: registered pin 403 (PZ3) on soc:pin-controller-z@54004000
[    0.063328] pinctrl core: registered pin 404 (PZ4) on soc:pin-controller-z@54004000
[    0.063340] pinctrl core: registered pin 405 (PZ5) on soc:pin-controller-z@54004000
[    0.063352] pinctrl core: registered pin 406 (PZ6) on soc:pin-controller-z@54004000
[    0.063364] pinctrl core: registered pin 407 (PZ7) on soc:pin-controller-z@54004000
[    0.063384] stm32mp157-pinctrl soc:pin-controller-z@54004000: no hogs found
[    0.063616] gpio gpiochip9: (GPIOZ): created GPIO range 0->7 ==> soc:pin-controller-z@54004000 PIN 400->407
[    0.063902] gpio gpiochip9: (GPIOZ): added GPIO chardev (254:9)
[    0.064055] gpiochip_setup_dev: registered GPIOs 400 to 415 on device: gpiochip9 (GPIOZ)
[    0.064072] stm32mp157-pinctrl soc:pin-controller-z@54004000: GPIOZ bank added
[    0.064092] stm32mp157-pinctrl soc:pin-controller-z@54004000: Pinctrl STM32 initialized
[    0.083171] reg-fixed-voltage regulator-3v3: GPIO lookup for consumer (null)
[    0.083194] reg-fixed-voltage regulator-3v3: using device tree for GPIO lookup
[    0.083237] of_get_named_gpiod_flags: can't parse 'gpios' property of node '/regulator-3v3[0]'
[    0.083266] of_get_named_gpiod_flags: can't parse 'gpio' property of node '/regulator-3v3[0]'
[    0.083284] reg-fixed-voltage regulator-3v3: using lookup tables for GPIO lookup
[    0.083299] reg-fixed-voltage regulator-3v3: No GPIO consumer (null) found
[    0.083342] 3v3: 3300 mV
[    0.083593] reg-fixed-voltage regulator-3v3: 3v3 supplying 3300000uV
[    0.084285] SCSI subsystem initialized
[    0.084583] usbcore: registered new interface driver usbfs
[    0.084651] usbcore: registered new interface driver hub
[    0.084804] usbcore: registered new device driver usb
[    0.084915] pps_core: LinuxPPS API ver. 1 registered
[    0.084927] pps_core: Software ver. 5.3.6 - Copyright 2005-2007 Rodolfo Giometti <giometti@linux.it>
[    0.084957] PTP clock support registered
[    0.085260] Advanced Linux Sound Architecture Driver Initialized.
[    0.086563] clocksource: Switched to clocksource arch_sys_counter
[    0.099856] NET: Registered protocol family 2
[    0.100549] tcp_listen_portaddr_hash hash table entries: 512 (order: 0, 6144 bytes, linear)
[    0.100598] TCP established hash table entries: 4096 (order: 2, 16384 bytes, linear)
[    0.100662] TCP bind hash table entries: 4096 (order: 3, 32768 bytes, linear)
[    0.100755] TCP: Hash tables configured (established 4096 bind 4096)
[    0.100902] UDP hash table entries: 256 (order: 1, 8192 bytes, linear)
[    0.100946] UDP-Lite hash table entries: 256 (order: 1, 8192 bytes, linear)
[    0.101209] NET: Registered protocol family 1
[    0.101977] RPC: Registered named UNIX socket transport module.
[    0.101996] RPC: Registered udp transport module.
[    0.102004] RPC: Registered tcp transport module.
[    0.102013] RPC: Registered tcp NFSv4.1 backchannel transport module.
[    0.103520] workingset: timestamp_bits=14 max_order=17 bucket_order=3
[    0.115926] NFS: Registering the id_resolver key type
[    0.115975] Key type id_resolver registered
[    0.115985] Key type id_legacy registered
[    0.116449] Block layer SCSI generic (bsg) driver version 0.4 loaded (major 248)
[    0.116467] io scheduler mq-deadline registered
[    0.116477] io scheduler kyber registered
[    0.117307] phy phy-5a006000.usbphyc.0: Looking up phy-supply from device tree
[    0.117349] 3v3: could not add device link phy-5a006000.usbphyc.0 err -2
[    0.117606] phy phy-5a006000.usbphyc.0: Looking up vdda1v1-supply from device tree
[    0.117633] phy phy-5a006000.usbphyc.0: Failed to get supply 'vdda1v1', deferring
[    0.119122] stm32-vrefbuf 50025000.vrefbuf: Looking up vdda-supply from device tree
[    0.119147] vref: supplied by 3v3
[    0.119165] 3v3: could not add device link regulator.2 err -2
[    0.119269] vref: 2500 mV
[    0.119935] stm32-pwr-regulator 50001000.pwr: Looking up vdd-supply from device tree
[    0.119962] reg11: supplied by 3v3
[    0.119980] 3v3: could not add device link regulator.3 err -2
[    0.120056] reg11: 1100 mV
[    0.120332] stm32-pwr-regulator 50001000.pwr: Looking up vdd-supply from device tree
[    0.120353] reg18: supplied by 3v3
[    0.120369] 3v3: could not add device link regulator.4 err -2
[    0.120430] reg18: 1800 mV
[    0.120716] stm32-pwr-regulator 50001000.pwr: Looking up vdd_3v3_usbfs-supply from device tree
[    0.120738] usb33: supplied by reg18
[    0.120754] reg18: could not add device link regulator.5 err -2
[    0.120824] usb33: 3300 mV
[    0.126975] STM32 USART driver initialized
[    0.127119] generic pinconfig core: found bias-disable with value 0
[    0.127167] pinctrl core: add 4 pinctrl maps
[    0.127188] generic pinconfig core: found bias-disable with value 0
[    0.127203] generic pinconfig core: found drive-push-pull with value 
0
[    0.127221] generic pinconfig core: found slew-rate with value 0
[    0.127263] pinctrl core: add 4 pinctrl maps
[    0.127305] pinctrl core: add 2 pinctrl maps
[    0.127339] pinctrl core: add 2 pinctrl maps
[    0.127379] stm32mp157-pinctrl soc:pin-controller@50002000: found group selector 51 for PD3
[    0.127400] stm32mp157-pinctrl soc:pin-controller@50002000: found group selector 51 for PD3
[    0.127422] stm32mp157-pinctrl soc:pin-controller@50002000: found group selector 54 for PD6
[    0.127442] stm32mp157-pinctrl soc:pin-controller@50002000: found group selector 54 for PD6
[    0.127464] stm32mp157-pinctrl soc:pin-controller@50002000: found group selector 52 for PD4
[    0.127483] stm32mp157-pinctrl soc:pin-controller@50002000: found group selector 52 for PD4
[    0.127506] stm32mp157-pinctrl soc:pin-controller@50002000: found group selector 53 for PD5
[    0.127525] stm32mp157-pinctrl soc:pin-controller@50002000: found group selector 53 for PD5
[    0.127548] stm32mp157-pinctrl soc:pin-controller@50002000: found group selector 53 for PD5
[    0.127571] stm32mp157-pinctrl soc:pin-controller@50002000: found group selector 54 for PD6
[    0.127593] stm32mp157-pinctrl soc:pin-controller@50002000: found group selector 51 for PD3
[    0.127616] stm32mp157-pinctrl soc:pin-controller@50002000: found group selector 52 for PD4
[    0.127639] stm32mp157-pinctrl soc:pin-controller@50002000: request pin 51 (PD3) for 4000e000.serial
[    0.127691] stm32mp157-pinctrl soc:pin-controller@50002000: request pin 54 (PD6) for 4000e000.serial
[    0.127719] stm32mp157-pinctrl soc:pin-controller@50002000: request pin 52 (PD4) for 4000e000.serial
[    0.127753] stm32mp157-pinctrl soc:pin-controller@50002000: request pin 53 (PD5) for 4000e000.serial
[    0.127945] 4000e000.serial: ttySTM1 at MMIO 0x4000e000 (irq = 20, base_baud = 4000000) is a stm32-usart
[    0.128328] stm32-usart 4000e000.serial: rx dma alloc failed
[    0.128345] stm32-usart 4000e000.serial: interrupt mode used for rx (no dma)
[    0.128360] stm32-usart 4000e000.serial: tx dma alloc failed
[    0.128372] stm32-usart 4000e000.serial: interrupt mode used for tx (no dma)
[    0.128527] generic pinconfig core: found bias-disable with value 0
[    0.128545] generic pinconfig core: found drive-push-pull with value 
0
[    0.128564] generic pinconfig core: found slew-rate with value 0
[    0.128587] generic pinconfig core: found bias-disable with value 0
[    0.128618] pinctrl core: add 4 pinctrl maps
[    0.128658] pinctrl core: add 2 pinctrl maps
[    0.128692] stm32mp157-pinctrl soc:pin-controller@50002000: found group selector 26 for PB10
[    0.128711] stm32mp157-pinctrl soc:pin-controller@50002000: found group selector 26 for PB10
[    0.128732] stm32mp157-pinctrl soc:pin-controller@50002000: found group selector 28 for PB12
[    0.128751] stm32mp157-pinctrl soc:pin-controller@50002000: found group selector 28 for PB12
[    0.128771] stm32mp157-pinctrl soc:pin-controller@50002000: found group selector 26 for PB10
[    0.128792] stm32mp157-pinctrl soc:pin-controller@50002000: found group selector 28 for PB12
[    0.128813] stm32mp157-pinctrl soc:pin-controller@50002000: request pin 26 (PB10) for 4000f000.serial
[    0.128874] stm32mp157-pinctrl soc:pin-controller@50002000: request pin 28 (PB12) for 4000f000.serial
[    0.129026] 4000f000.serial: ttySTM2 at MMIO 0x4000f000 (irq = 21, base_baud = 4000000) is a stm32-usart
[    0.129369] stm32-usart 4000f000.serial: rx dma alloc failed
[    0.129385] stm32-usart 4000f000.serial: interrupt mode used for rx (no dma)
[    0.129400] stm32-usart 4000f000.serial: tx dma alloc failed
[    0.129411] stm32-usart 4000f000.serial: interrupt mode used for tx (no dma)
[    0.129534] generic pinconfig core: found bias-disable with value 0
[    0.129550] generic pinconfig core: found drive-push-pull with value 
0
[    0.129570] generic pinconfig core: found slew-rate with value 0
[    0.129597] generic pinconfig core: found bias-pull-up with value 1
[    0.129627] pinctrl core: add 4 pinctrl maps
[    0.129668] pinctrl core: add 2 pinctrl maps
[    0.129709] stm32mp157-pinctrl soc:pin-controller@50002000: found group selector 107 for PG11
[    0.129734] stm32mp157-pinctrl soc:pin-controller@50002000: found group selector 107 for PG11
[    0.129754] stm32mp157-pinctrl soc:pin-controller@50002000: found group selector 18 for PB2
[    0.129771] stm32mp157-pinctrl soc:pin-controller@50002000: found group selector 18 for PB2
[    0.129800] stm32mp157-pinctrl soc:pin-controller@50002000: found group selector 107 for PG11
[    0.129819] stm32mp157-pinctrl soc:pin-controller@50002000: found group selector 18 for PB2
[    0.129839] stm32mp157-pinctrl soc:pin-controller@50002000: request pin 107 (PG11) for 40010000.serial
[    0.129887] stm32mp157-pinctrl soc:pin-controller@50002000: request pin 18 (PB2) for 40010000.serial
[    0.130016] 40010000.serial: ttySTM0 at MMIO 0x40010000 (irq = 22, base_baud = 4000000) is a stm32-usart
[    3.128331] printk: console [ttySTM0] enabled
[    3.133022] stm32-usart 40010000.serial: rx dma alloc failed
[    3.138322] stm32-usart 40010000.serial: interrupt mode used for rx (no dma)
[    3.145310] stm32-usart 40010000.serial: tx dma alloc failed
[    3.150978] stm32-usart 40010000.serial: interrupt mode used for tx (no dma)
[    3.161368] i2c-core: driver [sn65dsi83] registered
[    3.179492] brd: module loaded
[    3.193852] loop: module loaded
[    3.195584] i2c-core: driver [at24] registered
[    3.200094] i2c-core: driver [rpi_display] registered
[    3.205832] generic pinconfig core: found bias-disable with value 0
[    3.211344] generic pinconfig core: found drive-push-pull with value 
0
[    3.217796] generic pinconfig core: found slew-rate with value 1
[    3.223794] pinctrl core: add 6 pinctrl maps
[    3.228087] pinctrl core: add 3 pinctrl maps
[    3.232314] stm32mp157-pinctrl soc:pin-controller@50002000: found group selector 66 for PE2
[    3.240646] stm32mp157-pinctrl soc:pin-controller@50002000: found group selector 66 for PE2
[    3.248991] stm32mp157-pinctrl soc:pin-controller@50002000: found group selector 69 for PE5
[    3.257320] stm32mp157-pinctrl soc:pin-controller@50002000: found group selector 69 for PE5
[    3.265650] stm32mp157-pinctrl soc:pin-controller@50002000: found group selector 78 for PE14
[    3.274093] stm32mp157-pinctrl soc:pin-controller@50002000: found group selector 78 for PE14
[    3.282533] stm32mp157-pinctrl soc:pin-controller@50002000: found group selector 66 for PE2
[    3.290863] stm32mp157-pinctrl soc:pin-controller@50002000: found group selector 69 for PE5
[    3.299199] stm32mp157-pinctrl soc:pin-controller@50002000: found group selector 78 for PE14
[    3.307626] stm32mp157-pinctrl soc:pin-controller@50002000: request pin 66 (PE2) for 44005000.spi
[    3.316509] stm32mp157-pinctrl soc:pin-controller@50002000: request pin 69 (PE5) for 44005000.spi
[    3.325365] stm32mp157-pinctrl soc:pin-controller@50002000: request pin 78 (PE14) for 44005000.spi
[    3.335178] generic pinconfig core: found bias-disable with value 0
[    3.340606] generic pinconfig core: found drive-push-pull with value 
0
[    3.347118] generic pinconfig core: found slew-rate with value 1
[    3.353052] pinctrl core: add 4 pinctrl maps
[    3.357341] generic pinconfig core: found bias-disable with value 0
[    3.363547] generic pinconfig core: found drive-push-pull with value 
0
[    3.370126] generic pinconfig core: found slew-rate with value 1
[    3.376066] pinctrl core: add 4 pinctrl maps
[    3.380381] pinctrl core: add 2 pinctrl maps
[    3.384586] pinctrl core: add 2 pinctrl maps
[    3.388902] stm32mp157-pinctrl soc:pin-controller@50002000: found group selector 6 for PA6
[    3.397103] stm32mp157-pinctrl soc:pin-controller@50002000: found group selector 6 for PA6
[    3.405338] stm32mp157-pinctrl soc:pin-controller@50002000: found group selector 5 for PA5
[    3.413611] stm32mp157-pinctrl soc:pin-controller@50002000: found group selector 5 for PA5
[    3.421859] stm32mp157-pinctrl soc:pin-controller-z@54004000: found group selector 3 for PZ3
[    3.430289] stm32mp157-pinctrl soc:pin-controller-z@54004000: found group selector 3 for PZ3
[    3.438712] stm32mp157-pinctrl soc:pin-controller-z@54004000: found group selector 2 for PZ2
[    3.447143] stm32mp157-pinctrl soc:pin-controller-z@54004000: found group selector 2 for PZ2
[    3.455552] stm32mp157-pinctrl soc:pin-controller@50002000: found group selector 6 for PA6
[    3.463842] stm32mp157-pinctrl soc:pin-controller@50002000: found group selector 5 for PA5
[    3.472080] stm32mp157-pinctrl soc:pin-controller-z@54004000: found group selector 3 for PZ3
[    3.480512] stm32mp157-pinctrl soc:pin-controller-z@54004000: found group selector 2 for PZ2
[    3.488934] stm32mp157-pinctrl soc:pin-controller@50002000: request pin 6 (PA6) for 5c001000.spi
[    3.497740] stm32mp157-pinctrl soc:pin-controller@50002000: request pin 5 (PA5) for 5c001000.spi
[    3.506473] stm32mp157-pinctrl soc:pin-controller-z@54004000: request pin 403 (PZ3) for 5c001000.spi
[    3.515636] stm32mp157-pinctrl soc:pin-controller-z@54004000: request pin 402 (PZ2) for 5c001000.spi
[    3.525629] generic pinconfig core: found bias-disable with value 0
[    3.531025] generic pinconfig core: found drive-push-pull with value 
0
[    3.537570] generic pinconfig core: found slew-rate with value 1
[    3.543489] generic pinconfig core: found bias-disable with value 0
[    3.549749] generic pinconfig core: found drive-push-pull with value 
0
[    3.556240] generic pinconfig core: found slew-rate with value 2
[    3.562324] pinctrl core: add 8 pinctrl maps
[    3.566517] stm32mp157-pinctrl soc:pin-controller@50002000: found group selector 22 for PB6
[    3.574862] stm32mp157-pinctrl soc:pin-controller@50002000: found group selector 22 for PB6
[    3.583219] stm32mp157-pinctrl soc:pin-controller@50002000: found group selector 89 for PF9
[    3.591531] stm32mp157-pinctrl soc:pin-controller@50002000: found group selector 89 for PF9
[    3.599878] stm32mp157-pinctrl soc:pin-controller@50002000: found group selector 88 for PF8
[    3.608209] stm32mp157-pinctrl soc:pin-controller@50002000: found group selector 88 for PF8
[    3.616566] stm32mp157-pinctrl soc:pin-controller@50002000: found group selector 90 for PF10
[    3.624961] stm32mp157-pinctrl soc:pin-controller@50002000: found group selector 90 for PF10
[    3.633415] stm32mp157-pinctrl soc:pin-controller@50002000: request pin 22 (PB6) for 58003000.spi
[    3.642297] stm32mp157-pinctrl soc:pin-controller@50002000: request pin 89 (PF9) for 58003000.spi
[    3.651149] stm32mp157-pinctrl soc:pin-controller@50002000: request pin 88 (PF8) for 58003000.spi
[    3.659999] stm32mp157-pinctrl soc:pin-controller@50002000: request pin 90 (PF10) for 58003000.spi
[    3.670667] mdio_bus fixed-0: GPIO lookup for consumer reset
[    3.674861] mdio_bus fixed-0: using lookup tables for GPIO lookup
[    3.680994] mdio_bus fixed-0: No GPIO consumer reset found
[    3.686444] libphy: Fixed MDIO Bus: probed
[    3.691281] CAN device driver interface
[    3.694463] generic pinconfig core: found bias-disable with value 0
[    3.700648] generic pinconfig core: found bias-disable with value 0
[    3.706904] generic pinconfig core: found drive-push-pull with value 
0
[    3.713350] generic pinconfig core: found slew-rate with value 0
[    3.719376] pinctrl core: add 4 pinctrl maps
[    3.723628] pinctrl core: add 2 pinctrl maps
[    3.727907] stm32mp157-pinctrl soc:pin-controller@50002000: found group selector 48 for PD0
[    3.736199] stm32mp157-pinctrl soc:pin-controller@50002000: found group selector 48 for PD0
[    3.744567] stm32mp157-pinctrl soc:pin-controller@50002000: found group selector 49 for PD1
[    3.752903] stm32mp157-pinctrl soc:pin-controller@50002000: found group selector 49 for PD1
[    3.761244] stm32mp157-pinctrl soc:pin-controller@50002000: found group selector 48 for PD0
[    3.769582] stm32mp157-pinctrl soc:pin-controller@50002000: found group selector 49 for PD1
[    3.777937] stm32mp157-pinctrl soc:pin-controller@50002000: request pin 48 (PD0) for 4400e000.can
[    3.786812] stm32mp157-pinctrl soc:pin-controller@50002000: request pin 49 (PD1) for 4400e000.can
[    3.795746] m_can_platform 4400e000.can: sidf 0x0 0 xidf 0x0 0 rxf0 0x0 32 rxf1 0x900 0 rxb 0x900 0 txe 0x900 2 txb 0x910 2
[    3.807671] m_can_platform 4400e000.can: m_can device registered (irq=56, version=32)
[    3.814687] generic pinconfig core: found bias-disable with value 0
[    3.820868] generic pinconfig core: found drive-push-pull with value 
0
[    3.827353] generic pinconfig core: found slew-rate with value 0
[    3.833332] generic pinconfig core: found bias-disable with value 0
[    3.839616] pinctrl core: add 4 pinctrl maps
[    3.843863] pinctrl core: add 2 pinctrl maps
[    3.848139] stm32mp157-pinctrl soc:pin-controller@50002000: found group selector 29 for PB13
[    3.856520] stm32mp157-pinctrl soc:pin-controller@50002000: found group selector 29 for PB13
[    3.864972] stm32mp157-pinctrl soc:pin-controller@50002000: found group selector 21 for PB5
[    3.873307] stm32mp157-pinctrl soc:pin-controller@50002000: found group selector 21 for PB5
[    3.881674] stm32mp157-pinctrl soc:pin-controller@50002000: found group selector 21 for PB5
[    3.889992] stm32mp157-pinctrl soc:pin-controller@50002000: found group selector 29 for PB13
[    3.898415] stm32mp157-pinctrl soc:pin-controller@50002000: request pin 29 (PB13) for 4400f000.can
[    3.907393] stm32mp157-pinctrl soc:pin-controller@50002000: request pin 21 (PB5) for 4400f000.can
[    3.916311] m_can_platform 4400f000.can: sidf 0x1400 0 xidf 0x1400 0 rxf0 0x1400 32 rxf1 0x1d00 0 rxb 0x1d00 0 txe 0x1d00 2 txb 0x1d10 2
[    3.929304] m_can_platform 4400f000.can: m_can device registered (irq=58, version=32)
[    3.936659] generic pinconfig core: found bias-disable with value 0
[    3.942524] generic pinconfig core: found drive-push-pull with value 
0
[    3.949072] generic pinconfig core: found slew-rate with value 3
[    3.955081] generic pinconfig core: found bias-disable with value 0
[    3.961315] generic pinconfig core: found drive-push-pull with value 
0
[    3.967828] generic pinconfig core: found slew-rate with value 1
[    3.973810] generic pinconfig core: found bias-pull-up with value 1
[    3.980141] generic pinconfig core: found bias-pull-down with value 1
[    3.986514] pinctrl core: add 30 pinctrl maps
[    3.990924] pinctrl core: add 15 pinctrl maps
[    3.995204] stm32mp157-pinctrl soc:pin-controller@50002000: found group selector 100 for PG4
[    4.003631] stm32mp157-pinctrl soc:pin-controller@50002000: found group selector 100 for PG4
[    4.012093] stm32mp157-pinctrl soc:pin-controller@50002000: found group selector 109 for PG13
[    4.020574] stm32mp157-pinctrl soc:pin-controller@50002000: found group selector 109 for PG13
[    4.029101] stm32mp157-pinctrl soc:pin-controller@50002000: found group selector 110 for PG14
[    4.037596] stm32mp157-pinctrl soc:pin-controller@50002000: found group selector 110 for PG14
[    4.046084] stm32mp157-pinctrl soc:pin-controller@50002000: found group selector 34 for PC2
[    4.054441] stm32mp157-pinctrl soc:pin-controller@50002000: found group selector 34 for PC2
[    4.062783] stm32mp157-pinctrl soc:pin-controller@50002000: found group selector 24 for PB8
[    4.071121] stm32mp157-pinctrl soc:pin-controller@50002000: found group selector 24 for PB8
[    4.079547] stm32mp157-pinctrl soc:pin-controller@50002000: found group selector 27 for PB11
[    4.087894] stm32mp157-pinctrl soc:pin-controller@50002000: found group selector 27 for PB11
[    4.096295] stm32mp157-pinctrl soc:pin-controller@50002000: found group selector 2 for PA2
[    4.104567] stm32mp157-pinctrl soc:pin-controller@50002000: found group selector 2 for PA2
[    4.112823] stm32mp157-pinctrl soc:pin-controller@50002000: found group selector 33 for PC1
[    4.121161] stm32mp157-pinctrl soc:pin-controller@50002000: found group selector 33 for PC1
[    4.129501] stm32mp157-pinctrl soc:pin-controller@50002000: found group selector 7 for PA7
[    4.137752] stm32mp157-pinctrl soc:pin-controller@50002000: found group selector 7 for PA7
[    4.145990] stm32mp157-pinctrl soc:pin-controller@50002000: found group selector 36 for PC4
[    4.154347] stm32mp157-pinctrl soc:pin-controller@50002000: found group selector 36 for PC4
[    4.162690] stm32mp157-pinctrl soc:pin-controller@50002000: found group selector 37 for PC5
[    4.171027] stm32mp157-pinctrl soc:pin-controller@50002000: found group selector 37 for PC5
[    4.179378] stm32mp157-pinctrl soc:pin-controller@50002000: found group selector 16 for PB0
[    4.187707] stm32mp157-pinctrl soc:pin-controller@50002000: found group selector 16 for PB0
[    4.196038] stm32mp157-pinctrl soc:pin-controller@50002000: found group selector 119 for PH7
[    4.204480] stm32mp157-pinctrl soc:pin-controller@50002000: found group selector 119 for PH7
[    4.212909] stm32mp157-pinctrl soc:pin-controller@50002000: found group selector 101 for PG5
[    4.221331] stm32mp157-pinctrl soc:pin-controller@50002000: found group selector 101 for PG5
[    4.229754] stm32mp157-pinctrl soc:pin-controller@50002000: found group selector 1 for PA1
[    4.238005] stm32mp157-pinctrl soc:pin-controller@50002000: found group selector 1 for PA1
[    4.246251] stm32mp157-pinctrl soc:pin-controller@50002000: found group selector 101 for PG5
[    4.254696] stm32mp157-pinctrl soc:pin-controller@50002000: found group selector 100 for PG4
[    4.263124] stm32mp157-pinctrl soc:pin-controller@50002000: found group selector 109 for PG13
[    4.271638] stm32mp157-pinctrl soc:pin-controller@50002000: found group selector 110 for PG14
[    4.280154] stm32mp157-pinctrl soc:pin-controller@50002000: found group selector 34 for PC2
[    4.288486] stm32mp157-pinctrl soc:pin-controller@50002000: found group selector 24 for PB8
[    4.296825] stm32mp157-pinctrl soc:pin-controller@50002000: found group selector 27 for PB11
[    4.305229] stm32mp157-pinctrl soc:pin-controller@50002000: found group selector 2 for PA2
[    4.313505] stm32mp157-pinctrl soc:pin-controller@50002000: found group selector 33 for PC1
[    4.321845] stm32mp157-pinctrl soc:pin-controller@50002000: found group selector 36 for PC4
[    4.330184] stm32mp157-pinctrl soc:pin-controller@50002000: found group selector 37 for PC5
[    4.338530] stm32mp157-pinctrl soc:pin-controller@50002000: found group selector 16 for PB0
[    4.346872] stm32mp157-pinctrl soc:pin-controller@50002000: found group selector 119 for PH7
[    4.355269] stm32mp157-pinctrl soc:pin-controller@50002000: found group selector 1 for PA1
[    4.363542] stm32mp157-pinctrl soc:pin-controller@50002000: found group selector 7 for PA7
[    4.371798] stm32mp157-pinctrl soc:pin-controller@50002000: request pin 100 (PG4) for 5800a000.ethernet
[    4.381228] stm32mp157-pinctrl soc:pin-controller@50002000: request pin 109 (PG13) for 5800a000.ethernet
[    4.390669] stm32mp157-pinctrl soc:pin-controller@50002000: request pin 110 (PG14) for 5800a000.ethernet
[    4.400134] stm32mp157-pinctrl soc:pin-controller@50002000: request pin 34 (PC2) for 5800a000.ethernet
[    4.409429] stm32mp157-pinctrl soc:pin-controller@50002000: request pin 24 (PB8) for 5800a000.ethernet
[    4.418724] stm32mp157-pinctrl soc:pin-controller@50002000: request pin 27 (PB11) for 5800a000.ethernet
[    4.428105] stm32mp157-pinctrl soc:pin-controller@50002000: request pin 2 (PA2) for 5800a000.ethernet
[    4.437315] stm32mp157-pinctrl soc:pin-controller@50002000: request pin 33 (PC1) for 5800a000.ethernet
[    4.446610] stm32mp157-pinctrl soc:pin-controller@50002000: request pin 7 (PA7) for 5800a000.ethernet
[    4.455791] stm32mp157-pinctrl soc:pin-controller@50002000: request pin 36 (PC4) for 5800a000.ethernet
[    4.465109] stm32mp157-pinctrl soc:pin-controller@50002000: request pin 37 (PC5) for 5800a000.ethernet
[    4.474404] stm32mp157-pinctrl soc:pin-controller@50002000: request pin 16 (PB0) for 5800a000.ethernet
[    4.483710] stm32mp157-pinctrl soc:pin-controller@50002000: request pin 119 (PH7) for 5800a000.ethernet
[    4.493086] stm32mp157-pinctrl soc:pin-controller@50002000: request pin 101 (PG5) for 5800a000.ethernet
[    4.502466] stm32mp157-pinctrl soc:pin-controller@50002000: request pin 1 (PA1) for 5800a000.ethernet
[    4.511760] stm32-dwmac 5800a000.ethernet: IRQ eth_wake_irq not found
[    4.518098] stm32-dwmac 5800a000.ethernet: IRQ eth_lpi not found
[    4.524209] stm32-dwmac 5800a000.ethernet: PTP uses main clock
[    4.529922] stm32-dwmac 5800a000.ethernet: no reset control found
[    4.536487] stm32-dwmac 5800a000.ethernet: User ID: 0x40, Synopsys ID: 0x42
[    4.542992] stm32-dwmac 5800a000.ethernet:   DWMAC4/5
[    4.547897] stm32-dwmac 5800a000.ethernet: DMA HW capability register supported
[    4.555164] stm32-dwmac 5800a000.ethernet: RX Checksum Offload Engine supported
[    4.562482] stm32-dwmac 5800a000.ethernet: TX Checksum insertion supported
[    4.569342] stm32-dwmac 5800a000.ethernet: Wake-Up On Lan supported
[    4.575628] stm32-dwmac 5800a000.ethernet: TSO supported
[    4.580912] stm32-dwmac 5800a000.ethernet: Enable RX Mitigation via HW Watchdog Timer
[    4.588728] stm32-dwmac 5800a000.ethernet: Enabled Flow TC (entries=2)
[    4.595212] stm32-dwmac 5800a000.ethernet: TSO feature enabled
[    4.601058] stm32-dwmac 5800a000.ethernet: Using 32 bits DMA width
[    4.607962] mdio_bus stmmac-0: GPIO lookup for consumer reset
[    4.612935] mdio_bus stmmac-0: using device tree for GPIO lookup
[    4.619027] of_get_named_gpiod_flags: parsed 'reset-gpios' property of node '/soc/ethernet@5800a000/mdio0[0]' - status (0)
[    4.630005] stm32mp157-pinctrl soc:pin-controller@50002000: request pin 4 (PA4) for GPIOA:4
[    4.648365] stm32-dwmac 5800a000.ethernet: GPIO lookup for consumer snps,reset
[    4.654115] stm32-dwmac 5800a000.ethernet: using device tree for GPIO lookup
[    4.661203] of_get_named_gpiod_flags: can't parse 'snps,reset-gpios' property of node '/soc/ethernet@5800a000[0]'
[    4.671445] of_get_named_gpiod_flags: can't parse 'snps,reset-gpio' property of node '/soc/ethernet@5800a000[0]'
[    4.681610] stm32-dwmac 5800a000.ethernet: using lookup tables for GPIO lookup
[    4.688800] stm32-dwmac 5800a000.ethernet: No GPIO consumer snps,reset found
[    4.695818] libphy: stmmac: probed
[    4.699808] mdio_bus stmmac-0:03: GPIO lookup for consumer reset
[    4.705198] mdio_bus stmmac-0:03: using device tree for GPIO lookup
[    4.711529] of_get_named_gpiod_flags: can't parse 'reset-gpios' property of node '/soc/ethernet@5800a000/mdio0/ethernet-phy@3[0]'
[    4.723174] of_get_named_gpiod_flags: can't parse 'reset-gpio' property of node '/soc/ethernet@5800a000/mdio0/ethernet-phy@3[0]'
[    4.734719] mdio_bus stmmac-0:03: using lookup tables for GPIO lookup
[    4.741102] mdio_bus stmmac-0:03: No GPIO consumer reset found
[    4.749032] dwc2 49000000.usb-otg: mapped PA 49000000 to VA (ptrval)
[    4.754256] ehci_hcd: USB 2.0 'Enhanced' Host Controller (EHCI) Driver
[    4.760558] ehci-platform: EHCI generic platform driver
[    4.766134] usbcore: registered new interface driver usb-storage
[    4.771822] usbcore: registered new interface driver ums-sddr09
[    4.777727] usbcore: registered new interface driver usbserial_generic
[    4.784113] usbserial: USB Serial support registered for generic
[    4.790196] usbcore: registered new interface driver belkin_sa
[    4.795908] usbserial: USB Serial support registered for Belkin / Peracom / GoHubs USB Serial Adapter
[    4.805167] usbcore: registered new interface driver ftdi_sio
[    4.810912] usbserial: USB Serial support registered for FTDI USB Serial Device
[    4.818477] userial_init: registered 4 ttyGS* devices
[    4.823170] g_ffs: gfs_init()
[    4.826116] functionfs_init()
[    4.829115] file system registered
[    4.832606] i2c-core: driver [edt_ft5x06] registered
[    4.837510] usbcore: registered new interface driver usbtouchscreen
[    4.843693] i2c-core: driver [rpi_ft5406] registered
[    4.848672] i2c-core: driver [rtc-ds1307] registered
[    4.854622] alarmtimer alarmtimer.0.auto: no of_node; not parsing pinctrl DT
[    4.860935] stm32_rtc 5c004000.rtc: registered as rtc0
[    4.865775] stm32_rtc 5c004000.rtc: setting system clock to 2000-01-01T00:49:14 UTC (946687754)
[    4.874797] stm32_rtc 5c004000.rtc: Date/Time must be initialized
[    4.880563] stm32_rtc 5c004000.rtc: registered rev:1.2
[    4.885771] i2c /dev entries driver
[    4.889294] generic pinconfig core: found bias-disable with value 0
[    4.895354] generic pinconfig core: found drive-open-drain with value 
0
[    4.902003] generic pinconfig core: found slew-rate with value 0
[    4.907990] pinctrl core: add 4 pinctrl maps
[    4.912235] pinctrl core: add 2 pinctrl maps
[    4.916498] stm32mp157-pinctrl soc:pin-controller-z@54004000: found group selector 0 for PZ0
[    4.924923] stm32mp157-pinctrl soc:pin-controller-z@54004000: found group selector 0 for PZ0
[    4.933343] stm32mp157-pinctrl soc:pin-controller-z@54004000: found group selector 1 for PZ1
[    4.941768] stm32mp157-pinctrl soc:pin-controller-z@54004000: found group selector 1 for PZ1
[    4.950199] stm32mp157-pinctrl soc:pin-controller-z@54004000: found group selector 0 for PZ0
[    4.958624] stm32mp157-pinctrl soc:pin-controller-z@54004000: found group selector 1 for PZ1
[    4.967053] stm32mp157-pinctrl soc:pin-controller-z@54004000: request pin 400 (PZ0) for 40013000.i2c
[    4.976189] stm32mp157-pinctrl soc:pin-controller-z@54004000: request pin 401 (PZ1) for 40013000.i2c
[    4.985843] stm32f7-i2c 40013000.i2c: SDADEL(min/max): 0/3125, SCLDEL(Min): 275
[    5.008832] stm32f7-i2c 40013000.i2c: Presc: 1, scldel: 13, sdadel: 0, scll: 235, sclh: 255
[    5.015719] stm32f7-i2c 40013000.i2c: I2C Speed(0), Freq(100000), Clk Source(104438965)
[    5.023728] stm32f7-i2c 40013000.i2c: I2C Rise(25) and Fall(10) Time
[    5.030067] stm32f7-i2c 40013000.i2c: I2C Analog Filter(On), DNF(0)
[    5.036311] stm32f7-i2c 40013000.i2c: can't request DMA tx channel
[    5.042492] stm32f7-i2c 40013000.i2c: can't use DMA
[    5.047797] i2c-dev: adapter [STM32F7 I2C(0x40013000)] registered as minor 1
[    5.054436] i2c i2c-1: adapter [STM32F7 I2C(0x40013000)] registered
[    5.060706] i2c i2c-1: of_i2c: walking child nodes
[    5.065416] stm32f7-i2c 40013000.i2c: STM32F7 I2C-1 bus adapter
[    5.071572] generic pinconfig core: found bias-disable with value 0
[    5.077671] generic pinconfig core: found drive-open-drain with value 
0
[    5.084177] generic pinconfig core: found slew-rate with value 0
[    5.090208] pinctrl core: add 4 pinctrl maps
[    5.094467] pinctrl core: add 2 pinctrl maps
[    5.098742] stm32mp157-pinctrl soc:pin-controller@50002000: found group selector 11 for PA11
[    5.107135] stm32mp157-pinctrl soc:pin-controller@50002000: found group selector 11 for PA11
[    5.115537] stm32mp157-pinctrl soc:pin-controller@50002000: found group selector 12 for PA12
[    5.124039] stm32mp157-pinctrl soc:pin-controller@50002000: found group selector 12 for PA12
[    5.132420] stm32mp157-pinctrl soc:pin-controller@50002000: found group selector 11 for PA11
[    5.140840] stm32mp157-pinctrl soc:pin-controller@50002000: found group selector 12 for PA12
[    5.149266] stm32mp157-pinctrl soc:pin-controller@50002000: request pin 11 (PA11) for 5c009000.i2c
[    5.158246] stm32mp157-pinctrl soc:pin-controller@50002000: request pin 12 (PA12) for 5c009000.i2c
[    5.167719] stm32f7-i2c 5c009000.i2c: SDADEL(min/max): 0/3105, SCLDEL(Min): 275
[    5.192503] stm32f7-i2c 5c009000.i2c: Presc: 1, scldel: 9, sdadel: 0, scll: 153, sclh: 172
[    5.199325] stm32f7-i2c 5c009000.i2c: I2C Speed(0), Freq(100000), Clk Source(66625000)
[    5.207223] stm32f7-i2c 5c009000.i2c: I2C Rise(25) and Fall(10) Time
[    5.213544] stm32f7-i2c 5c009000.i2c: I2C Analog Filter(On), DNF(0)
[    5.219829] stm32f7-i2c 5c009000.i2c: can't request DMA tx channel
[    5.225969] stm32f7-i2c 5c009000.i2c: can't use DMA
[    5.231317] i2c-dev: adapter [STM32F7 I2C(0x5c009000)] registered as minor 0
[    5.237984] i2c i2c-0: adapter [STM32F7 I2C(0x5c009000)] registered
[    5.244151] i2c i2c-0: of_i2c: walking child nodes
[    5.248943] stm32f7-i2c 5c009000.i2c: STM32F7 I2C-0 bus adapter
[    5.257256] generic pinconfig core: found bias-disable with value 0
[    5.262059] generic pinconfig core: found drive-push-pull with value 
0
[    5.268636] generic pinconfig core: found slew-rate with value 1
[    5.274594] generic pinconfig core: found bias-disable with value 0
[    5.280867] generic pinconfig core: found drive-push-pull with value 
0
[    5.287364] generic pinconfig core: found slew-rate with value 2
[    5.293361] pinctrl core: add 12 pinctrl maps
[    5.297720] generic pinconfig core: found bias-disable with value 0
[    5.303930] generic pinconfig core: found drive-push-pull with value 
0
[    5.310472] generic pinconfig core: found slew-rate with value 1
[    5.316460] generic pinconfig core: found bias-disable with value 0
[    5.322716] generic pinconfig core: found drive-open-drain with value 
0
[    5.329323] generic pinconfig core: found slew-rate with value 1
[    5.335311] generic pinconfig core: found bias-disable with value 0
[    5.341570] generic pinconfig core: found drive-push-pull with value 
0
[    5.348088] generic pinconfig core: found slew-rate with value 2
[    5.354069] pinctrl core: add 14 pinctrl maps
[    5.358463] pinctrl core: add 6 pinctrl maps
[    5.362707] stm32mp157-pinctrl soc:pin-controller@50002000: found group selector 50 for PD2
[    5.371034] stm32mp157-pinctrl soc:pin-controller@50002000: found group selector 50 for PD2
[    5.379381] stm32mp157-pinctrl soc:pin-controller@50002000: found group selector 40 for PC8
[    5.387705] stm32mp157-pinctrl soc:pin-controller@50002000: found group selector 40 for PC8
[    5.396026] stm32mp157-pinctrl soc:pin-controller@50002000: found group selector 41 for PC9
[    5.404383] stm32mp157-pinctrl soc:pin-controller@50002000: found group selector 41 for PC9
[    5.412725] stm32mp157-pinctrl soc:pin-controller@50002000: found group selector 42 for PC10
[    5.421149] stm32mp157-pinctrl soc:pin-controller@50002000: found group selector 42 for PC10
[    5.429579] stm32mp157-pinctrl soc:pin-controller@50002000: found group selector 43 for PC11
[    5.438003] stm32mp157-pinctrl soc:pin-controller@50002000: found group selector 43 for PC11
[    5.446413] stm32mp157-pinctrl soc:pin-controller@50002000: found group selector 44 for PC12
[    5.454857] stm32mp157-pinctrl soc:pin-controller@50002000: found group selector 44 for PC12
[    5.463287] stm32mp157-pinctrl soc:pin-controller@50002000: found group selector 50 for PD2
[    5.471623] stm32mp157-pinctrl soc:pin-controller@50002000: found group selector 50 for PD2
[    5.479975] stm32mp157-pinctrl soc:pin-controller@50002000: found group selector 40 for PC8
[    5.488304] stm32mp157-pinctrl soc:pin-controller@50002000: found group selector 40 for PC8
[    5.496646] stm32mp157-pinctrl soc:pin-controller@50002000: found group selector 41 for PC9
[    5.504964] stm32mp157-pinctrl soc:pin-controller@50002000: found group selector 41 for PC9
[    5.513327] stm32mp157-pinctrl soc:pin-controller@50002000: found group selector 42 for PC10
[    5.521750] stm32mp157-pinctrl soc:pin-controller@50002000: found group selector 42 for PC10
[    5.530180] stm32mp157-pinctrl soc:pin-controller@50002000: found group selector 43 for PC11
[    5.538603] stm32mp157-pinctrl soc:pin-controller@50002000: found group selector 43 for PC11
[    5.547033] stm32mp157-pinctrl soc:pin-controller@50002000: found group selector 50 for PD2
[    5.555364] stm32mp157-pinctrl soc:pin-controller@50002000: found group selector 50 for PD2
[    5.563716] stm32mp157-pinctrl soc:pin-controller@50002000: found group selector 44 for PC12
[    5.572139] stm32mp157-pinctrl soc:pin-controller@50002000: found group selector 44 for PC12
[    5.580578] stm32mp157-pinctrl soc:pin-controller@50002000: found group selector 50 for PD2
[    5.588909] stm32mp157-pinctrl soc:pin-controller@50002000: found group selector 40 for PC8
[    5.597248] stm32mp157-pinctrl soc:pin-controller@50002000: found group selector 41 for PC9
[    5.605568] stm32mp157-pinctrl soc:pin-controller@50002000: found group selector 42 for PC10
[    5.614015] stm32mp157-pinctrl soc:pin-controller@50002000: found group selector 43 for PC11
[    5.622441] stm32mp157-pinctrl soc:pin-controller@50002000: found group selector 44 for PC12
[    5.630867] stm32mp157-pinctrl soc:pin-controller@50002000: request pin 50 (PD2) for 58005000.sdmmc
[    5.639940] stm32mp157-pinctrl soc:pin-controller@50002000: request pin 40 (PC8) for 58005000.sdmmc
[    5.648955] stm32mp157-pinctrl soc:pin-controller@50002000: request pin 41 (PC9) for 58005000.sdmmc
[    5.657986] stm32mp157-pinctrl soc:pin-controller@50002000: request pin 42 (PC10) for 58005000.sdmmc
[    5.667107] stm32mp157-pinctrl soc:pin-controller@50002000: request pin 43 (PC11) for 58005000.sdmmc
[    5.676207] stm32mp157-pinctrl soc:pin-controller@50002000: request pin 44 (PC12) for 58005000.sdmmc
[    5.685481] mmci-pl18x 58005000.sdmmc: GPIO lookup for consumer cd
[    5.691511] mmci-pl18x 58005000.sdmmc: using device tree for GPIO lookup
[    5.698235] of_get_named_gpiod_flags: parsed 'cd-gpios' property of node '/soc/sdmmc@58005000[0]' - status (0)
[    5.708199] stm32mp157-pinctrl soc:pin-controller@50002000: request pin 23 (PB7) for GPIOB:23
[    5.716717] mmci-pl18x 58005000.sdmmc: Got CD GPIO
[    5.721453] mmci-pl18x 58005000.sdmmc: GPIO lookup for consumer wp
[    5.727640] mmci-pl18x 58005000.sdmmc: using device tree for GPIO lookup
[    5.734329] of_get_named_gpiod_flags: can't parse 'wp-gpios' property of node '/soc/sdmmc@58005000[0]'
[    5.743644] of_get_named_gpiod_flags: can't parse 'wp-gpio' property of node '/soc/sdmmc@58005000[0]'
[    5.752838] mmci-pl18x 58005000.sdmmc: using lookup tables for GPIO lookup
[    5.759696] mmci-pl18x 58005000.sdmmc: No GPIO consumer wp found
[    5.765723] mmci-pl18x 58005000.sdmmc: obtain a copy of previously claimed pinctrl
[    5.773327] mmci-pl18x 58005000.sdmmc: Looking up vmmc-supply from device tree
[    5.780637] mmci-pl18x 58005000.sdmmc: Looking up vqmmc-supply from device tree
[    5.787788] mmci-pl18x 58005000.sdmmc: Looking up vqmmc-supply property in node /soc/sdmmc@58005000 failed
[    5.797797] mmci-pl18x 58005000.sdmmc: mmc0: PL180 manf 53 rev1 at 0x58005000 irq 47,0 (pio)
[    5.832742] generic pinconfig core: found bias-disable with value 0
[    5.837613] generic pinconfig core: found drive-push-pull with value 
0
[    5.844065] generic pinconfig core: found slew-rate with value 1
[    5.850275] generic pinconfig core: found bias-disable with value 0
[    5.856413] generic pinconfig core: found drive-push-pull with value 
0
[    5.862868] generic pinconfig core: found slew-rate with value 3
[    5.868883] pinctrl core: add 20 pinctrl maps
[    5.873183] generic pinconfig core: found bias-disable with value 0
[    5.879459] generic pinconfig core: found drive-push-pull with value 
0
[    5.885937] generic pinconfig core: found slew-rate with value 1
[    5.891974] generic pinconfig core: found bias-disable with value 0
[    5.898204] generic pinconfig core: found drive-open-drain with value 
0
[    5.904790] generic pinconfig core: found slew-rate with value 1
[    5.910810] generic pinconfig core: found bias-disable with value 0
[    5.917099] stm32mp157-pinctrl soc:pin-controller@50002000: request pin 50 (PD2) for 58005000.sdmmc
[    5.926092] stm32mp157-pinctrl soc:pin-controller@50002000: request pin 40 (PC8) for 58005000.sdmmc
[    5.935143] generic pinconfig core: found drive-push-pull with value 
0
[    5.941652] generic pinconfig core: found slew-rate with value 3
[    5.947658] stm32mp157-pinctrl soc:pin-controller@50002000: request pin 41 (PC9) for 58005000.sdmmc
[    5.947712] pinctrl core: add 20 pinctrl maps
[    5.956684] stm32mp157-pinctrl soc:pin-controller@50002000: request pin 42 (PC10) for 58005000.sdmmc
[    5.961061] pinctrl core: add 10 pinctrl maps
[    5.970146] stm32mp157-pinctrl soc:pin-controller@50002000: request pin 43 (PC11) for 58005000.sdmmc
[    5.974518] stm32mp157-pinctrl soc:pin-controller@50002000: found group selector 30 for PB14
[    5.983627] stm32mp157-pinctrl soc:pin-controller@50002000: request pin 44 (PC12) for 58005000.sdmmc
[    5.992029] stm32mp157-pinctrl soc:pin-controller@50002000: found group selector 30 for PB14
[    6.009589] stm32mp157-pinctrl soc:pin-controller@50002000: found group selector 31 for PB15
[    6.018020] stm32mp157-pinctrl soc:pin-controller@50002000: found group selector 31 for PB15
[    6.026415] stm32mp157-pinctrl soc:pin-controller@50002000: found group selector 19 for PB3
[    6.034775] stm32mp157-pinctrl soc:pin-controller@50002000: found group selector 19 for PB3
[    6.043115] stm32mp157-pinctrl soc:pin-controller@50002000: found group selector 20 for PB4
[    6.051453] stm32mp157-pinctrl soc:pin-controller@50002000: found group selector 20 for PB4
[    6.059795] stm32mp157-pinctrl soc:pin-controller@50002000: found group selector 8 for PA8
[    6.068046] stm32mp157-pinctrl soc:pin-controller@50002000: found group selector 8 for PA8
[    6.076282] stm32mp157-pinctrl soc:pin-controller@50002000: found group selector 25 for PB9
[    6.084689] stm32mp157-pinctrl soc:pin-controller@50002000: found group selector 25 for PB9
[    6.092989] stm32mp157-pinctrl soc:pin-controller@50002000: found group selector 38 for PC6
[    6.101321] stm32mp157-pinctrl soc:pin-controller@50002000: found group selector 38 for PC6
[    6.109664] stm32mp157-pinctrl soc:pin-controller@50002000: found group selector 39 for PC7
[    6.118011] stm32mp157-pinctrl soc:pin-controller@50002000: found group selector 39 for PC7
[    6.126331] stm32mp157-pinctrl soc:pin-controller@50002000: found group selector 102 for PG6
[    6.134773] stm32mp157-pinctrl soc:pin-controller@50002000: found group selector 102 for PG6
[    6.143199] stm32mp157-pinctrl soc:pin-controller@50002000: found group selector 67 for PE3
[    6.151536] stm32mp157-pinctrl soc:pin-controller@50002000: found group selector 67 for PE3
[    6.159878] stm32mp157-pinctrl soc:pin-controller@50002000: found group selector 30 for PB14
[    6.168315] stm32mp157-pinctrl soc:pin-controller@50002000: found group selector 30 for PB14
[    6.176732] stm32mp157-pinctrl soc:pin-controller@50002000: found group selector 31 for PB15
[    6.185135] stm32mp157-pinctrl soc:pin-controller@50002000: found group selector 31 for PB15
[    6.193583] stm32mp157-pinctrl soc:pin-controller@50002000: found group selector 19 for PB3
[    6.201920] stm32mp157-pinctrl soc:pin-controller@50002000: found group selector 19 for PB3
[    6.210263] stm32mp157-pinctrl soc:pin-controller@50002000: found group selector 20 for PB4
[    6.218611] stm32mp157-pinctrl soc:pin-controller@50002000: found group selector 20 for PB4
[    6.226942] stm32mp157-pinctrl soc:pin-controller@50002000: found group selector 8 for PA8
[    6.235173] stm32mp157-pinctrl soc:pin-controller@50002000: found group selector 8 for PA8
[    6.243450] stm32mp157-pinctrl soc:pin-controller@50002000: found group selector 25 for PB9
[    6.251787] stm32mp157-pinctrl soc:pin-controller@50002000: found group selector 25 for PB9
[    6.260131] stm32mp157-pinctrl soc:pin-controller@50002000: found group selector 38 for PC6
[    6.268467] stm32mp157-pinctrl soc:pin-controller@50002000: found group selector 38 for PC6
[    6.276810] stm32mp157-pinctrl soc:pin-controller@50002000: found group selector 39 for PC7
[    6.285128] stm32mp157-pinctrl soc:pin-controller@50002000: found group selector 39 for PC7
[    6.293496] stm32mp157-pinctrl soc:pin-controller@50002000: found group selector 102 for PG6
[    6.301919] stm32mp157-pinctrl soc:pin-controller@50002000: found group selector 102 for PG6
[    6.310347] stm32mp157-pinctrl soc:pin-controller@50002000: found group selector 67 for PE3
[    6.318692] stm32mp157-pinctrl soc:pin-controller@50002000: found group selector 67 for PE3
[    6.327026] stm32mp157-pinctrl soc:pin-controller@50002000: found group selector 30 for PB14
[    6.335431] stm32mp157-pinctrl soc:pin-controller@50002000: found group selector 31 for PB15
[    6.343878] stm32mp157-pinctrl soc:pin-controller@50002000: found group selector 19 for PB3
[    6.352217] stm32mp157-pinctrl soc:pin-controller@50002000: found group selector 20 for PB4
[    6.360557] stm32mp157-pinctrl soc:pin-controller@50002000: found group selector 8 for PA8
[    6.368812] stm32mp157-pinctrl soc:pin-controller@50002000: found group selector 25 for PB9
[    6.377151] stm32mp157-pinctrl soc:pin-controller@50002000: found group selector 38 for PC6
[    6.385472] stm32mp157-pinctrl soc:pin-controller@50002000: found group selector 39 for PC7
[    6.393837] stm32mp157-pinctrl soc:pin-controller@50002000: found group selector 102 for PG6
[    6.402260] stm32mp157-pinctrl soc:pin-controller@50002000: found group selector 67 for PE3
[    6.410597] stm32mp157-pinctrl soc:pin-controller@50002000: request pin 30 (PB14) for 58007000.sdmmc
[    6.419759] stm32mp157-pinctrl soc:pin-controller@50002000: request pin 31 (PB15) for 58007000.sdmmc
[    6.428858] stm32mp157-pinctrl soc:pin-controller@50002000: request pin 19 (PB3) for 58007000.sdmmc
[    6.437890] stm32mp157-pinctrl soc:pin-controller@50002000: request pin 20 (PB4) for 58007000.sdmmc
[    6.446923] stm32mp157-pinctrl soc:pin-controller@50002000: request pin 8 (PA8) for 58007000.sdmmc
[    6.455851] stm32mp157-pinctrl soc:pin-controller@50002000: request pin 25 (PB9) for 58007000.sdmmc
[    6.464907] stm32mp157-pinctrl soc:pin-controller@50002000: request pin 38 (PC6) for 58007000.sdmmc
[    6.473942] stm32mp157-pinctrl soc:pin-controller@50002000: request pin 39 (PC7) for 58007000.sdmmc
[    6.482978] stm32mp157-pinctrl soc:pin-controller@50002000: request pin 102 (PG6) for 58007000.sdmmc
[    6.492103] stm32mp157-pinctrl soc:pin-controller@50002000: request pin 67 (PE3) for 58007000.sdmmc
[    6.501294] mmci-pl18x 58007000.sdmmc: GPIO lookup for consumer wp
[    6.507299] mmci-pl18x 58007000.sdmmc: using device tree for GPIO lookup
[    6.513983] of_get_named_gpiod_flags: can't parse 'wp-gpios' property of node '/soc/sdmmc@58007000[0]'
[    6.523306] of_get_named_gpiod_flags: can't parse 'wp-gpio' property of node '/soc/sdmmc@58007000[0]'
[    6.532486] mmci-pl18x 58007000.sdmmc: using lookup tables for GPIO lookup
[    6.539340] mmci-pl18x 58007000.sdmmc: No GPIO consumer wp found
[    6.545369] mmci-pl18x 58007000.sdmmc: obtain a copy of previously claimed pinctrl
[    6.552990] mmci-pl18x 58007000.sdmmc: Looking up vmmc-supply from device tree
[    6.560258] mmci-pl18x 58007000.sdmmc: Looking up vqmmc-supply from device tree
[    6.567429] mmci-pl18x 58007000.sdmmc: Looking up vqmmc-supply property in node /soc/sdmmc@58007000 failed
[    6.577408] mmci-pl18x 58007000.sdmmc: mmc1: PL180 manf 53 rev1 at 0x58007000 irq 48,0 (pio)
[    6.613236] sdhci: Secure Digital Host Controller Interface driver
[    6.618055] sdhci: Copyright(c) Pierre Ossman
[    6.622314] Synopsys Designware Multimedia Card Interface Driver
[    6.629594] sdhci-pltfm: SDHCI platform and OF driver helper
[    6.633986] stm32mp157-pinctrl soc:pin-controller@50002000: request pin 30 (PB14) for 58007000.sdmmc
[    6.643301] of_get_named_gpiod_flags: parsed 'gpios' property of node '/leds/module-led[0]' - status (0)
[    6.652617] stm32mp157-pinctrl soc:pin-controller@50002000: request pin 31 (PB15) for 58007000.sdmmc
[    6.661744] stm32mp157-pinctrl soc:pin-controller@50002000: request pin 13 (PA13) for GPIOA:13
[    6.670347] no flags found for gpios
[    6.670389] stm32mp157-pinctrl soc:pin-controller@50002000: request pin 19 (PB3) for 58007000.sdmmc
[    6.682938] ledtrig-cpu: registered to indicate activity on CPUs
[    6.682957] stm32mp157-pinctrl soc:pin-controller@50002000: request pin 20 (PB4) for 58007000.sdmmc
[    6.689108] usbcore: registered new interface driver usbhid
[    6.697927] stm32mp157-pinctrl soc:pin-controller@50002000: request pin 8 (PA8) for 58007000.sdmmc
[    6.703430] usbhid: USB HID core driver
[    6.712424] stm32mp157-pinctrl soc:pin-controller@50002000: request pin 25 (PB9) for 58007000.sdmmc
[    6.716574] stm32-adc-core 48003000.adc: Looking up vdda-supply from device tree
[    6.725291] stm32mp157-pinctrl soc:pin-controller@50002000: request pin 38 (PC6) for 58007000.sdmmc
[    6.732741] stm32-adc-core 48003000.adc: Looking up vref-supply from device tree
[    6.741701] stm32mp157-pinctrl soc:pin-controller@50002000: request pin 39 (PC7) for 58007000.sdmmc
[    6.749217] stm32-adc-core 48003000.adc: Looking up vdd-supply from device tree
[    6.758121] stm32mp157-pinctrl soc:pin-controller@50002000: request pin 102 (PG6) for 58007000.sdmmc
[    6.766278] stm32-adc-core 48003000.adc: IRQ index 2 not found
[    6.774549] stm32mp157-pinctrl soc:pin-controller@50002000: request pin 67 (PE3) for 58007000.sdmmc
[    6.782042] iio iio:device0: No channels configured
[    6.794400] stm32-adc: probe of 48003000.adc:adc@100 failed with error -61
[    6.802198] stm32-romem 5c005000.efuse: GPIO lookup for consumer wp
[    6.807401] stm32-romem 5c005000.efuse: using device tree for GPIO lookup
[    6.814145] of_get_named_gpiod_flags: can't parse 'wp-gpios' property of node '/soc/efuse@5c005000[0]'
[    6.823500] of_get_named_gpiod_flags: can't parse 'wp-gpio' property of node '/soc/efuse@5c005000[0]'
[    6.832651] stm32-romem 5c005000.efuse: using lookup tables for GPIO lookup
[    6.839639] stm32-romem 5c005000.efuse: No GPIO consumer wp found
[    6.846721] snd-soc-dummy snd-soc-dummy: no of_node; not parsing pinctrl DT
[    6.852905] i2c-core: driver [sgtl5000] registered
[    6.858267] NET: Registered protocol family 17
[    6.861827] can: controller area network core (rev 20170425 abi 9)
[    6.868170] NET: Registered protocol family 29
[    6.872406] can: raw protocol (rev 20170425)
[    6.876694] can: broadcast manager protocol (rev 20170425 t)
[    6.882421] Key type dns_resolver registered
[    6.886772] ThumbEE CPU extension supported.
[    6.890836] Registering SWP/SWPB emulation handler
[    6.890872] stm32mp157-pinctrl soc:pin-controller@50002000: request pin 30 (PB14) for 58007000.sdmmc
[    6.904930] stm32mp157-pinctrl soc:pin-controller@50002000: request pin 31 (PB15) for 58007000.sdmmc
[    6.913986] stm32mp157-pinctrl soc:pin-controller@50002000: request pin 19 (PB3) for 58007000.sdmmc
[    6.923075] stm32mp157-pinctrl soc:pin-controller@50002000: request pin 20 (PB4) for 58007000.sdmmc
[    6.932088] stm32mp157-pinctrl soc:pin-controller@50002000: request pin 8 (PA8) for 58007000.sdmmc
[    6.933827] stm32-dma 48000000.dma-controller: STM32 DMA driver registered
[    6.940945] stm32mp157-pinctrl soc:pin-controller@50002000: request pin 25 (PB9) for 58007000.sdmmc
[    6.949427] stm32-dma 48001000.dma-controller: STM32 DMA driver registered
[    6.956885] stm32mp157-pinctrl soc:pin-controller@50002000: request pin 38 (PC6) for 58007000.sdmmc
[    6.967410] stm32-mdma 58000000.dma-controller: STM32 MDMA driver registered
[    6.972725] stm32mp157-pinctrl soc:pin-controller@50002000: request pin 39 (PC7) for 58007000.sdmmc
[    6.980014] phy phy-5a006000.usbphyc.0: Looking up phy-supply from device tree
[    6.988840] stm32mp157-pinctrl soc:pin-controller@50002000: request pin 102 (PG6) for 58007000.sdmmc
[    6.995963] 3v3: could not add device link phy-5a006000.usbphyc.0 err -2
[    7.005115] stm32mp157-pinctrl soc:pin-controller@50002000: request pin 67 (PE3) for 58007000.sdmmc
[    7.012004] phy phy-5a006000.usbphyc.0: Looking up vdda1v1-supply from device tree
[    7.028531] phy phy-5a006000.usbphyc.0: Looking up vdda1v8-supply from device tree
[    7.036026] phy phy-5a006000.usbphyc.1: Looking up phy-supply from device tree
[    7.043172] 3v3: could not add device link phy-5a006000.usbphyc.1 err -2
[    7.050041] phy phy-5a006000.usbphyc.1: Looking up vdda1v1-supply from device tree
[    7.057492] phy phy-5a006000.usbphyc.1: Looking up vdda1v8-supply from device tree
[    7.065061] stm32-usbphyc 5a006000.usbphyc: registered rev:1.0
[    7.071162] generic pinconfig core: found bias-disable with value 0
[    7.077049] generic pinconfig core: found drive-push-pull with value 
0
[    7.083528] generic pinconfig core: found slew-rate with value 1
[    7.089584] pinctrl core: add 6 pinctrl maps
[    7.093784] mmc1: switch to bus width 8 failed
[    7.093833] pinctrl core: add 3 pinctrl maps
[    7.102553] stm32mp157-pinctrl soc:pin-controller@50002000: found group selector 66 for PE2
[    7.110846] stm32mp157-pinctrl soc:pin-controller@50002000: found group selector 66 for PE2
[    7.119183] stm32mp157-pinctrl soc:pin-controller@50002000: found group selector 69 for PE5
[    7.127508] stm32mp157-pinctrl soc:pin-controller@50002000: found group selector 69 for PE5
[    7.135829] stm32mp157-pinctrl soc:pin-controller@50002000: found group selector 78 for PE14
[    7.135876] mmc1: new high speed MMC card at address 0001
[    7.144267] stm32mp157-pinctrl soc:pin-controller@50002000: found group selector 78 for PE14
[    7.149912] mmcblk mmc1:0001: no of_node; not parsing pinctrl DT
[    7.158085] stm32mp157-pinctrl soc:pin-controller@50002000: found group selector 66 for PE2
[    7.172417] stm32mp157-pinctrl soc:pin-controller@50002000: found group selector 69 for PE5
[    7.180757] stm32mp157-pinctrl soc:pin-controller@50002000: found group selector 78 for PE14
[    7.189182] stm32mp157-pinctrl soc:pin-controller@50002000: request pin 66 (PE2) for 44005000.spi
[    7.189834] mmcblk1: mmc1:0001 004GA0 3.69 GiB
[    7.198169] stm32mp157-pinctrl soc:pin-controller@50002000: request pin 69 (PE5) for 44005000.spi
[    7.202812] mmcblk1boot0: mmc1:0001 004GA0 partition 1 2.00 MiB
[    7.211454] stm32mp157-pinctrl soc:pin-controller@50002000: request pin 78 (PE14) for 44005000.spi
[    7.217558] mmcblk1boot1: mmc1:0001 004GA0 partition 2 2.00 MiB
[    7.232285] spi_stm32 44005000.spi: no CS gpios available
[    7.232528] mmcblk1rpmb: mmc1:0001 004GA0 partition 3 512 KiB, chardev (245:0)
[    7.238008] ------------[ cut here ]------------
[    7.244838] stm32mp157-pinctrl soc:pin-controller@50002000: request pin 30 (PB14) for 58007000.sdmmc
[    7.249461] WARNING: CPU: 0 PID: 65 at fs/kernfs/dir.c:1507 kernfs_remove_by_name_ns+0xa8/0xb0
[    7.258528] stm32mp157-pinctrl soc:pin-controller@50002000: request pin 31 (PB15) for 58007000.sdmmc
[    7.267116] kernfs: can not remove 'uevent', no directory
[    7.276213] stm32mp157-pinctrl soc:pin-controller@50002000: request pin 19 (PB3) for 58007000.sdmmc
[    7.281596] Modules linked in:
[    7.281612] CPU: 0 PID: 65 Comm: kworker/0:2 Not tainted 5.7.1 #1
[    7.281616] Hardware name: STM32 (Device Tree Support)
[    7.281635] Workqueue: events deferred_probe_work_func
[    7.290655] stm32mp157-pinctrl soc:pin-controller@50002000: request pin 20 (PB4) for 58007000.sdmmc
[    7.293678] [<c010ee58>] (unwind_backtrace) from [<c010af68>] (show_stack+0x10/0x14)
[    7.299776] stm32mp157-pinctrl soc:pin-controller@50002000: request pin 8 (PA8) for 58007000.sdmmc
[    7.304876] [<c010af68>] (show_stack) from [<c043cf78>] (dump_stack+0x90/0xa4)
[    7.310027] stm32mp157-pinctrl soc:pin-controller@50002000: request pin 25 (PB9) for 58007000.sdmmc
[    7.319038] [<c043cf78>] (dump_stack) from [<c011a6d8>] (__warn+0xbc/0xd8)
[    7.319055] [<c011a6d8>] (__warn) from [<c011a78c>] (warn_slowpath_fmt+0x98/0xc4)
[    7.326790] stm32mp157-pinctrl soc:pin-controller@50002000: request pin 38 (PC6) for 58007000.sdmmc
[    7.335716] [<c011a78c>] (warn_slowpath_fmt) from [<c02abc38>] (kernfs_remove_by_name_ns+0xa8/0xb0)
[    7.342952] stm32mp157-pinctrl soc:pin-controller@50002000: request pin 39 (PC7) for 58007000.sdmmc
[    7.351963] [<c02abc38>] (kernfs_remove_by_name_ns) from [<c05310e4>] (device_del+0x14c/0x3c8)
[    7.351980] [<c05310e4>] (device_del) from [<c0531374>] (device_unregister+0x14/0x5c)
[    7.358847] stm32mp157-pinctrl soc:pin-controller@50002000: request pin 102 (PG6) for 58007000.sdmmc
[    7.366300] [<c0531374>] (device_unregister) from [<c0593b38>] (spi_unregister_controller+0x88/0xe8)
[    7.375362] stm32mp157-pinctrl soc:pin-controller@50002000: request pin 67 (PE3) for 58007000.sdmmc
[    7.384367] [<c0593b38>] (spi_unregister_controller) from [<c0539a28>] (release_nodes+0x1c4/0x210)
[    7.384382] [<c0539a28>] (release_nodes) from [<c0535e70>] (really_probe+0x110/0x458)
[    7.384399] [<c0535e70>] (really_probe) from [<c053667c>] (driver_probe_device+0x124/0x144)
[    7.462209] [<c053667c>] (driver_probe_device) from [<c0534704>] (bus_for_each_drv+0x84/0xd0)
[    7.470717] [<c0534704>] (bus_for_each_drv) from [<c0536368>] (__device_attach+0xe0/0x16c)
[    7.478970] [<c0536368>] (__device_attach) from [<c05348f8>] (bus_probe_device+0x84/0x8c)
[    7.487139] [<c05348f8>] (bus_probe_device) from [<c0535620>] (deferred_probe_work_func+0x78/0xb8)
[    7.496087] [<c0535620>] (deferred_probe_work_func) from [<c01337c4>] (process_one_work+0x1d4/0x41c)
[    7.505206] [<c01337c4>] (process_one_work) from [<c0133c54>] (worker_thread+0x248/0x528)
[    7.513374] [<c0133c54>] (worker_thread) from [<c0139b60>] (kthread+0x144/0x180)
[    7.520758] [<c0139b60>] (kthread) from [<c0100148>] (ret_from_fork+0x14/0x2c)
[    7.527960] Exception stack(0xd6519fb0 to 0xd6519ff8)
[    7.533002] 9fa0:                                     00000000 00000000 00000000 00000000
[    7.541171] 9fc0: 00000000 00000000 00000000 00000000 00000000 00000000 00000000 00000000
[    7.549335] 9fe0: 00000000 00000000 00000000 00000000 00000013 00000000
[    7.556036] ---[ end trace 320f2825cd533349 ]---
[    7.556288] stm32mp157-pinctrl soc:pin-controller@50002000: request pin 30 (PB14) for 58007000.sdmmc
[    7.560573] ------------[ cut here ]------------
[    7.569763] stm32mp157-pinctrl soc:pin-controller@50002000: request pin 31 (PB15) for 58007000.sdmmc
[    7.574282] WARNING: CPU: 0 PID: 65 at fs/kernfs/dir.c:1507 kernfs_remove_by_name_ns+0xa8/0xb0
[    7.583449] stm32mp157-pinctrl soc:pin-controller@50002000: request pin 19 (PB3) for 58007000.sdmmc
[    7.592007] kernfs: can not remove 'online', no directory
[    7.592012] Modules linked in:
[    7.592029] CPU: 0 PID: 65 Comm: kworker/0:2 Tainted: G        W         5.7.1 #1
[    7.601087] stm32mp157-pinctrl soc:pin-controller@50002000: request pin 20 (PB4) for 58007000.sdmmc
[    7.606409] Hardware name: STM32 (Device Tree Support)
[    7.609491] stm32mp157-pinctrl soc:pin-controller@50002000: request pin 8 (PA8) for 58007000.sdmmc
[    7.616930] Workqueue: events deferred_probe_work_func
[    7.625986] stm32mp157-pinctrl soc:pin-controller@50002000: request pin 25 (PB9) for 58007000.sdmmc
[    7.631095] [<c010ee58>] (unwind_backtrace) from [<c010af68>] (show_stack+0x10/0x14)
[    7.631112] [<c010af68>] (show_stack) from [<c043cf78>] (dump_stack+0x90/0xa4)
[    7.640072] stm32mp157-pinctrl soc:pin-controller@50002000: request pin 38 (PC6) for 58007000.sdmmc
[    7.645167] [<c043cf78>] (dump_stack) from [<c011a6d8>] (__warn+0xbc/0xd8)
[    7.654234] stm32mp157-pinctrl soc:pin-controller@50002000: request pin 39 (PC7) for 58007000.sdmmc
[    7.661930] [<c011a6d8>] (__warn) from [<c011a78c>] (warn_slowpath_fmt+0x98/0xc4)
[    7.661946] [<c011a78c>] (warn_slowpath_fmt) from [<c02abc38>] (kernfs_remove_by_name_ns+0xa8/0xb0)
[    7.669174] stm32mp157-pinctrl soc:pin-controller@50002000: request pin 102 (PG6) for 58007000.sdmmc
[    7.678176] [<c02abc38>] (kernfs_remove_by_name_ns) from [<c052f688>] (device_remove_attrs+0x20/0x5c)
[    7.678192] [<c052f688>] (device_remove_attrs) from [<c05310f0>] (device_del+0x158/0x3c8)
[    7.685062] stm32mp157-pinctrl soc:pin-controller@50002000: request pin 67 (PE3) for 58007000.sdmmc
[    7.694074] [<c05310f0>] (device_del) from [<c0531374>] (device_unregister+0x14/0x5c)
[    7.694094] [<c0531374>] (device_unregister) from [<c0593b38>] (spi_unregister_controller+0x88/0xe8)
[    7.763057] [<c0593b38>] (spi_unregister_controller) from [<c0539a28>] (release_nodes+0x1c4/0x210)
[    7.772000] [<c0539a28>] (release_nodes) from [<c0535e70>] (really_probe+0x110/0x458)
[    7.779817] [<c0535e70>] (really_probe) from [<c053667c>] (driver_probe_device+0x124/0x144)
[    7.788160] [<c053667c>] (driver_probe_device) from [<c0534704>] (bus_for_each_drv+0x84/0xd0)
[    7.796672] [<c0534704>] (bus_for_each_drv) from [<c0536368>] (__device_attach+0xe0/0x16c)
[    7.804925] [<c0536368>] (__device_attach) from [<c05348f8>] (bus_probe_device+0x84/0x8c)
[    7.813094] [<c05348f8>] (bus_probe_device) from [<c0535620>] (deferred_probe_work_func+0x78/0xb8)
[    7.822042] [<c0535620>] (deferred_probe_work_func) from [<c01337c4>] (process_one_work+0x1d4/0x41c)
[    7.831161] [<c01337c4>] (process_one_work) from [<c0133c54>] (worker_thread+0x248/0x528)
[    7.839329] [<c0133c54>] (worker_thread) from [<c0139b60>] (kthread+0x144/0x180)
[    7.846712] [<c0139b60>] (kthread) from [<c0100148>] (ret_from_fork+0x14/0x2c)
[    7.853915] Exception stack(0xd6519fb0 to 0xd6519ff8)
[    7.858957] 9fa0:                                     00000000 00000000 00000000 00000000
[    7.867126] 9fc0: 00000000 00000000 00000000 00000000 00000000 00000000 00000000 00000000
[    7.875290] 9fe0: 00000000 00000000 00000000 00000000 00000013 00000000
[    7.881997] ---[ end trace 320f2825cd53334a ]---
[    7.886820] 8<--- cut here ---
[    7.889556] Unable to handle kernel NULL pointer dereference at virtual address 00000050
[    7.897775] pgd = (ptrval)
[    7.900321] [00000050] *pgd=00000000
[    7.903932] Internal error: Oops: 5 [#1] PREEMPT SMP ARM
[    7.909165] Modules linked in:
[    7.912213] CPU: 0 PID: 65 Comm: kworker/0:2 Tainted: G        W         5.7.1 #1
[    7.919677] Hardware name: STM32 (Device Tree Support)
[    7.924819] Workqueue: events deferred_probe_work_func
[    7.929935] PC is at kernfs_find_ns+0x8/0x108
[    7.934277] LR is at kernfs_find_and_get_ns+0x30/0x48
[    7.939312] pc : [<c02aa3c0>]    lr : [<c02ab408>]    psr: 60000013
[    7.945567] sp : d6519da4  ip : 00000000  fp : d6518000
[    7.950779] r10: 00000000  r9 : c0539a74  r8 : d6561058
[    7.955993] r7 : 00000000  r6 : c0a65468  r5 : 00000000  r4 : c0c14320
[    7.962509] r3 : d6208b00  r2 : 00000000  r1 : c0a65468  r0 : 00000000
[    7.969026] Flags: nZCv  IRQs on  FIQs on  Mode SVC_32  ISA ARM  Segment none
[    7.976149] Control: 10c5387d  Table: c000406a  DAC: 00000051
[    7.981881] Process kworker/0:2 (pid: 65, stack limit = 0x(ptrval))
[    7.988137] Stack: (0xd6519da4 to 0xd651a000)
[    7.992488] 9da0:          c0c14320 00000000 c0a65468 00000000 c02ab408 00000000 c095730c
[    8.000654] 9dc0: d6561000 00000008 d6561058 c02aea38 c0a84f8c d6519e4c c0c250b0 d6561000
[    8.008820] 9de0: d614e010 c02aeb84 d6561000 d70ac238 d614e010 c05310f0 d6794208 c0c04c88
[    8.016986] 9e00: d6561000 00000000 c0592b94 c0c04c88 00000000 d6561000 d6561000 00000000
[    8.025153] 9e20: 00000008 d6519e4c c0539a74 c0531374 d6561000 c0593b38 d6719480 d6719780
[    8.033319] 9e40: d614e010 c0539a28 c0c25650 d6719e00 d6719480 c0c04c88 d614e010 c0cbd33c
[    8.041485] 9e60: ffffffea c0cbd44c 00000000 c0c25650 00000006 c0535e70 d614e010 00000000
[    8.049652] 9e80: d614e010 c0c25650 c053678c c0c230e0 c0c3c240 c0a58514 00000000 c053667c
[    8.057817] 9ea0: c0c25650 c05367e0 00000000 d6519ee4 c053678c c0c230e0 c0c3c240 c0534704
[    8.065984] 9ec0: c0c230e0 d7037d6c d637e838 c0c04c88 d614e010 00000001 d614e054 c0536368
[    8.074150] 9ee0: d614e010 d614e010 00000001 c0c04c88 d614e010 d614e010 c0c23190 c05348f8
[    8.082316] 9f00: d614e010 c0c230cc c0c230cc c0535620 c0c23100 d6501200 d7b01cc0 d7b04e00
[    8.090482] 9f20: 00000000 00000000 00000000 c01337c4 d6208b00 d7b01cc0 d6501200 d6501214
[    8.098649] 9f40: d7b01cc0 00000008 d7b01cd8 c0c03d00 d7b01cc0 c0133c54 d707bebc c0c35c66
[    8.106815] 9f60: d6519f74 d7059340 d64ff3c0 d6518000 d707bebc d6501200 c0133a0c d705935c
[    8.114981] 9f80: 00000000 c0139b60 00000000 d64ff3c0 c0139a1c 00000000 00000000 00000000
[    8.123146] 9fa0: 00000000 00000000 00000000 c0100148 00000000 00000000 00000000 00000000
[    8.131313] 9fc0: 00000000 00000000 00000000 00000000 00000000 00000000 00000000 00000000
[    8.139479] 9fe0: 00000000 00000000 00000000 00000000 00000013 00000000 00000000 00000000
[    8.147651] [<c02aa3c0>] (kernfs_find_ns) from [<d6561058>] (0xd6561058)
[    8.154337] Code: eaffffc5 ebf9bf51 e92d40f0 e252c000 (e1d035b0)
[    8.160594] ---[ end trace 320f2825cd53334b ]---
[    8.165092] Kernel panic - not syncing: Fatal exception
[    8.170250] CPU1: stopping
[    8.172927] CPU: 1 PID: 0 Comm: swapper/1 Tainted: G      D W         5.7.1 #1
[    8.180128] Hardware name: STM32 (Device Tree Support)
[    8.185272] [<c010ee58>] (unwind_backtrace) from [<c010af68>] (show_stack+0x10/0x14)
[    8.192998] [<c010af68>] (show_stack) from [<c043cf78>] (dump_stack+0x90/0xa4)
[    8.200208] [<c043cf78>] (dump_stack) from [<c010db7c>] (handle_IPI+0x15c/0x188)
[    8.207593] [<c010db7c>] (handle_IPI) from [<c04552c8>] (gic_handle_irq+0x74/0x78)
[    8.215149] [<c04552c8>] (gic_handle_irq) from [<c0100b0c>] (__irq_svc+0x6c/0xa8)
[    8.222612] Exception stack(0xd708ff58 to 0xd708ffa0)
[    8.227652] ff40:                                                       00000000 00001050
[    8.235824] ff60: d7b118f0 c0115380 d708e000 00000001 c0c04ca8 c0c04ce8 c0b44370 00000000
[    8.243990] ff80: 00000000 d708ffb0 00000000 d708ffa8 c01083c8 c01083cc 60000113 ffffffff
[    8.252160] [<c0100b0c>] (__irq_svc) from [<c01083cc>] (arch_cpu_idle+0x38/0x3c)
[    8.259544] [<c01083cc>] (arch_cpu_idle) from [<c01475f4>] (do_idle+0x234/0x2ac)
[    8.266928] [<c01475f4>] (do_idle) from [<c014796c>] (cpu_startup_entry+0x18/0x1c)
[    8.274484] [<c014796c>] (cpu_startup_entry) from [<c010152c>] (__enable_mmu+0x0/0x14)
[    8.282393] ---[ end Kernel panic - not syncing: Fatal exception ]---

